WeightClassKg,Sex,Event,Equipment,Tested,Division,Name,CyrillicName,BirthDate,BodyweightKg,Squat1Kg,Squat2Kg,Squat3Kg,Best3SquatKg,Bench1Kg,Bench2Kg,Bench3Kg,Best3BenchKg,Bench4Kg,Deadlift1Kg,Deadlift2Kg,Deadlift3Kg,Best3DeadliftKg,Deadlift4Kg,TotalKg,Place
52,F,SBD,Raw,Yes,Open,Irina Karasenko,Ірина Карасенко,1986-04-19,51.4,100,-105,-105,100,60,65,,65,,100,-105,-105,100,,265,1
52,F,SBD,Raw,Yes,Open,Svitlana Latish,Світлана Латиш,1990-10-17,52,-95,-100,-100,,,,,,,,,,,,,DQ
56,F,SBD,Raw,Yes,Open,Oleksandra Astakhova,Олександра Астахова,1990-12-16,54.25,120,-130,-130,120,65,70,-72.5,70,,125,135,-145,135,,325,1
56,F,SBD,Raw,Yes,Open,Tetyana Stronska,Тетяна Стронська,1984-09-19,55.8,-110,-110,-110,,,,,,,,,,,,,DQ
56,F,SBD,Wraps,Yes,Open,Svitlana Kravchenko,Світлана Кравченко,1971-05-11,53.45,90,-95,95,95,45,47.5,-50,47.5,,90,95,-97.5,95,,237.5,1
56,F,SBD,Wraps,Yes,Masters 40-49,Svitlana Kravchenko,Світлана Кравченко,1971-05-11,53.45,90,-95,95,95,45,47.5,-50,47.5,,90,95,-97.5,95,,237.5,1
60,F,SBD,Raw,Yes,Open,Nataliya Sokurenko,Наталія Сокуренко,1981-01-12,57.85,135,-145,145,145,70,-75,-75,70,,135,145,-150,145,,360,1
67.5,F,SBD,Raw,Yes,Teen 13-15,Anastasiya Stetsenko,Анастасія Стеценко,2003-02-21,66.8,75,85,92.5,92.5,50,52.5,55,55,,75,80,95,95,,242.5,1
67.5,F,SBD,Raw,Yes,Open,Tetyana Tkachenko,Тетяна Ткаченко,1983-07-26,65.75,-125,-125,125,125,60,65,-67.5,65,,120,125,130,130,,320,2
67.5,F,SBD,Raw,Yes,Open,Katerina Filipova,Катерина Філіпова,1984-06-25,66.5,115,122.5,-127.5,122.5,-60,-62.5,-62.5,,,,,,,,,DQ
75,F,SBD,Raw,Yes,Open,Viktoriya Kapustyan,Вікторія Капустян,1988-11-15,70.5,110,-120,-125,110,45,50,55,55,,110,125,-132.5,125,,290,1
67.5,M,SBD,Raw,Yes,Teen 18-19,Ruslan Ivanchik,Руслан Іванчик,1999-08-09,66.65,145,-155,155,155,115,-121,-121,115,,-160,170,-180,170,,440,1
67.5,M,SBD,Raw,Yes,Juniors 20-23,Oleksandr Onishchenko,Олександр Оніщенко,1996-03-05,65.2,130,140,-150,140,80,92.5,-100,92.5,,145,160,170,170,,402.5,1
67.5,M,SBD,Raw,Yes,Open,Sergiy Kalchuk,Сергій Кальчук,1989-06-29,67.05,160,170,180,180,110,115,120,120,,160,170,180,180,,480,1
67.5,M,SBD,Raw,Yes,Open,Oleksandr Onishchenko,Олександр Оніщенко,1996-03-05,65.2,130,140,-150,140,80,92.5,-100,92.5,,145,160,170,170,,402.5,2
75,M,SBD,Raw,Yes,Teen 18-19,Mikhaylo Yurchenko,Михайло Юрченко,1999-01-02,68.3,200,210,220,220,115,-120,-120,115,,232.5,-240,-240,232.5,,567.5,1
75,M,SBD,Raw,Yes,Teen 18-19,Ruslan Tikhonenko,Руслан Тихоненко,1998-06-17,72.8,-160,-165,-165,,,,,,,,,,,,,DQ
75,M,SBD,Raw,Yes,Juniors 20-23,Dmitro Dovgiy,Дмитро Довгий,1994-05-29,73.75,160,-170,-175,160,-100,105,-110,105,,160,175,187.5,187.5,,452.5,1
75,M,SBD,Raw,Yes,Juniors 20-23,Viktor Pirig,Віктор Пиріг,1996-04-22,74.85,215,-225,-225,215,-130,-130,-130,,,,,,,,,DQ
75,M,SBD,Raw,Yes,Masters 40-49,Yaroslav Panchenko,Ярослав Панченко,1977-08-14,73.95,180,190,195,195,110,115,-120,115,,-205,205,-215,205,,515,1
82.5,M,SBD,Raw,Yes,Juniors 20-23,Nazar Gesik,Назар Гесик,1996-03-17,82.2,-200,-200,200,200,125,-130,-130,125,,220,230,240,240,,565,1
82.5,M,SBD,Raw,Yes,Juniors 20-23,Volodimir Galiga,Володимир Галига,1997-01-07,80.2,170,180,-190,180,115,-122.5,-122.5,115,,215,225,230,230,,525,2
82.5,M,SBD,Raw,Yes,Juniors 20-23,Oleksandr Pilipenko,Олександр Пилипенко,1994-04-17,79.6,170,-177.5,177.5,177.5,-120,-120,-120,,,,,,,,,DQ
82.5,M,SBD,Raw,Yes,Juniors 20-23,Artur Troyan,Артур Троян,1994-06-30,81.05,-220,-220,-220,,,,,,,,,,,,,DQ
82.5,M,SBD,Raw,Yes,Masters 60-69,Sergiy Novatskiy,Сергій Новацький,1957-10-31,81.75,180,-190,190,190,117.5,122.5,125,125,,170,175,180,180,,495,1
82.5,M,SBD,Raw,Yes,Masters 60-69,Oleksandr Ostrovskiy,Олександр Островський,1953-02-10,80.8,140,150,160,160,85,95,100,100,,160,170,177.5,177.5,,437.5,1
82.5,M,SBD,Raw,Yes,Masters 70-79,Yuriy Starkov,Юрий Старков,1947-09-01,81.65,130,140,150,150,100,105,110,110,,200,210,220,220,,480,1
90,M,SBD,Raw,Yes,Juniors 20-23,Oleksandr Kryachok,Олександр Крячок,1996-06-06,90,190,200,210,210,130,135,140,140,,235,-247.5,-262.5,235,,585,1
90,M,SBD,Raw,Yes,Juniors 20-23,Vladislav Fartushniy,Владислав Фартушний,1997-08-03,83.75,210,-225,-225,210,95,105,110,110,,225,235,-245,235,,555,2
90,M,SBD,Raw,Yes,Open,Evgeniy Levkovskiy,Євгеній Левковский,1990-02-19,88.25,190,210,220,220,-155,-155,-155,,,,,,,,,DQ
90,M,SBD,Raw,Yes,Masters 40-49,Viktor Poshtarenko,Віктор Поштаренко,1970-02-06,88.35,190,197.5,202.5,202.5,-130,130,135,135,,-215,215,232.5,232.5,235,570,1
90,M,SBD,Raw,Yes,Masters 40-49,Yuriy Stetsenko,Юрій Стеценко,1975-09-06,88.7,160,170,180,180,115,-125,-125,115,,160,170,180,180,,475,1
90,M,SBD,Raw,Yes,Masters 50-59,Genadiy Ostrovskiy,Генадій Островський,1965-01-08,86.1,185,197.5,-205,197.5,115,122.5,-125,122.5,,200,-207.5,,200,,520,1
100,M,SBD,Raw,Yes,Teen 13-15,Yaroslav Gavyada,Ярослав Гав'Яда,2003-02-18,95.1,160,170,180,180,-95,-100,-100,,,,,,,,,DQ
100,M,SBD,Raw,Yes,Juniors 20-23,Oleksandr Skachkov,Олександр Скачков,1995-08-22,95.6,-210,215,-225,215,135,140,145,145,,215,230,245,245,,605,3
100,M,SBD,Raw,Yes,Open,Evgeniy Ivanets,Євгеній Іванець,1995-10-02,97.25,255,270,-280,270,130,137.5,142.5,142.5,,270,280,-290,280,,692.5,4
100,M,SBD,Raw,Yes,Open,Maksim Gerasimenko,Максим Герасименко,1985-05-08,94.15,210,230,240,240,135,145,-150,145,,220,240,-250,240,,625,5
100,M,SBD,Raw,Yes,Open,Pavlo Ivashchenko,Павло Іващенко,1986-01-31,97.2,200,-210,210,210,130,137.5,142.5,142.5,,200,210,220,220,,572.5,6
100,M,SBD,Raw,Yes,Masters 50-59,Volodimir Kolomiets,Володимир Коломіець,1966-05-09,100,195,205,210,210,130,140,145,145,,-202.5,202.5,215,215,,570,1
110,M,SBD,Raw,Yes,Juniors 20-23,Andriy Bronishevskiy,Андрій Бронішевський,1993-12-13,106.1,230,245,255,255,140,150,-152.5,150,,250,270,-290,270,,675,1
110,M,SBD,Raw,Yes,Open,Andriy Bronishevskiy,Андрій Бронішевський,1993-12-13,106.1,230,245,255,255,140,150,-152.5,150,,250,270,-290,270,,675,3
110,M,SBD,Raw,Yes,Masters 40-49,Igor Onishchak,Ігор Онищак,1976-09-20,103.5,200,-220,-225,200,120,-125,-125,120,,220,230,,230,,550,2
125,M,SBD,Raw,Yes,Open,Igor Zaychuk,Ігор Зайчук,1989-12-02,115.55,270,285,,285,195,202.5,-207.5,202.5,,292.5,312.5,-320,312.5,,800,1
140,M,SBD,Raw,Yes,Teen 16-17,Oles Petrenko,Олесь Петренко,2000-03-29,130.4,160,170,180,180,80,85,90,90,,180,190,200,200,,470,1
140,M,SBD,Raw,Yes,Open,Grigoriy Barannik,Григорій Бараннік,1990-05-09,126,225,240,250,250,150,160,,160,,245,260,267.5,267.5,,677.5,1
60,F,SBD,Multi-ply,Yes,Teen 18-19,Mariya Brayko,Мария Брайко,1997-12-03,58.25,105,115,-122.5,115,-40,40,42.5,42.5,,100,110,-115,110,,267.5,1
75,M,SBD,Multi-ply,Yes,Juniors 20-23,Volodimir Ivasyutin,Володимир Івасютин,1995-07-27,74,-190,-190,-200,,,,,,,,,,,,,DQ
52,F,BD,Raw,Yes,Open,Mariya Koshil,Марія Кошиль,1978-03-21,51.15,,,,,57.5,65,-67.5,65,,117.5,125,-135,125,,190,1
52,F,BD,Raw,Yes,Open,Svitlana Latish,Світлана Латиш,1990-10-17,52,,,,,47.5,-50,-50,47.5,,97.5,102.5,-107.5,102.5,,150,2
60,F,BD,Raw,Yes,Masters 40-49,Zhaneta Shostak,Жанета Шостак,1972-07-26,59.9,,,,,40,-42.5,-42.5,40,,65,72.5,80,80,,120,1
67.5,F,BD,Raw,Yes,Open,Katerina Filipova,Катерина Філіпова,1984-06-25,66.5,,,,,-55,55,60,60,,115,122.5,127.5,127.5,,187.5,1
75,F,BD,Raw,Yes,Open,Maria Kalistratova,,1991-05-29,71.2,,,,,75,77.5,-80,77.5,,140,147.5,-152.5,147.5,,225,1
67.5,M,BD,Raw,Yes,Teen 18-19,Ruslan Ivanchik,Руслан Іванчик,1999-08-09,66.65,,,,,115,-121,-121,115,,160,170,-185,170,,285,1
67.5,M,BD,Raw,Yes,Open,Sergiy Rogoviy,Сергій Роговий,1987-05-07,65.95,,,,,100,-105,-105,100,,130,-140,-140,130,,230,1
75,M,BD,Raw,Yes,Teen 18-19,Bogdan Ben,Богдан Бень,1999-01-07,73.45,,,,,125,-132.5,132.5,132.5,,210,225,-237.5,225,,357.5,1
82.5,M,BD,Raw,Yes,Juniors 20-23,Oleksandr Pilipenko,Олександр Пилипенко,1994-04-17,79.6,,,,,115,-117.5,-117.5,115,,185,197.5,-202.5,197.5,,312.5,1
82.5,M,BD,Raw,Yes,Open,Oleksandr Gora,Олександр Гора,1987-03-27,81.35,,,,,135,140,145,145,,160,175,180,180,,325,2
82.5,M,BD,Raw,Yes,Masters 40-49,Fedor Gapchich,Федор Гапчич,1976-02-06,81.4,,,,,130,-140,140,140,,180,190,200,200,,340,1
82.5,M,BD,Raw,Yes,Masters 50-59,Volodimir Galeta,Володимир Галета,1964-01-11,82,,,,,90,95,-100,95,,145,155,165,165,,260,1
82.5,M,BD,Raw,Yes,Masters 70-79,Yuriy Starkov,Юрий Старков,1947-09-01,81.65,,,,,100,105,110,110,,200,210,220,220,,330,1
90,M,BD,Raw,Yes,Juniors 20-23,Oleksandr Kryachok,Олександр Крячок,1996-06-06,90,,,,,130,135,140,140,,235,-247.5,-262.5,235,,375,1
100,M,BD,Raw,Yes,Masters 50-59,Volodimir Kolomiets,Володимир Коломіець,1966-05-09,100,,,,,130,140,145,145,,-202.5,202.5,215,215,,360,1
125,M,BD,Raw,Yes,Open,Igor Zaychuk,Ігор Зайчук,1989-12-02,115.55,,,,,195,202.5,-207.5,202.5,,292.5,312.5,-320,312.5,,515,1
44,F,B,Raw,Yes,Open,Oksana Usatyuk,Оксана Усатюк,1993-03-12,43.2,,,,,50,-55,-55,50,,,,,,,50,1
48,F,B,Raw,Yes,Open,Anna Tarasenko,Анна Тарасенко,1989-02-16,47.9,,,,,-70,70,-75,70,,,,,,,70,1
52,F,B,Raw,Yes,Open,Mariya Koshil,Марія Кошиль,1978-03-21,51.15,,,,,57.5,65,-67.5,65,,,,,,,65,1
52,F,B,Raw,Yes,Open,Irina Karasenko,Ірина Карасенко,1986-04-19,51.4,,,,,60,65,,65,,,,,,,65,2
56,F,B,Raw,Yes,Open,Oleksandra Astakhova,Олександра Астахова,1990-12-16,54.25,,,,,60,70,-72.5,70,,,,,,,70,1
56,F,B,Raw,Yes,Open,Nataliya Firsova,Наталія Фірсова,1966-10-16,54.9,,,,,57.5,-62.5,-62.5,57.5,,,,,,,57.5,2
56,F,B,Raw,Yes,Masters 40-49,Svitlana Kravchenko,Світлана Кравченко,1971-05-11,53.45,,,,,45,47.5,-50,47.5,,,,,,,47.5,1
56,F,B,Raw,Yes,Masters 50-59,Nataliya Firsova,Наталія Фірсова,1966-10-16,54.9,,,,,57.5,-62.5,-62.5,57.5,,,,,,,57.5,1
60,F,B,Raw,Yes,Teen 13-15,Renata Ignatova,Рената Ігнатова,2004-11-06,60,,,,,45,-50.5,-50.5,45,,,,,,,45,1
60,F,B,Raw,Yes,Open,Nataliya Sokurenko,Наталія Сокуренко,1981-01-12,57.85,,,,,70,-75,-75,70,,,,,,,70,1
67.5,F,B,Raw,Yes,Open,Nadiya Tishchenko,Надія Тищенко,1993-09-30,63.85,,,,,95,-97.5,-97.5,95,,,,,,,95,1
67.5,F,B,Raw,Yes,Open,Katerina Filipova,Катерина Філіпова,1984-06-25,66.5,,,,,-55,55,60,60,,,,,,,60,2
75,F,B,Raw,Yes,Open,Yuliya Olizarenko,Юлія Олізаренко,1989-04-30,71.9,,,,,82.5,87.5,90,90,,,,,,,90,1
75,F,B,Raw,Yes,Open,Irina Koropets,Ірина Коропець,1981-08-21,68,,,,,-80,82.5,-87.5,82.5,,,,,,,82.5,2
75,F,B,Raw,Yes,Open,Olena Rindya,Олена Риндя,1977-04-29,70.6,,,,,80,-86,-86,80,,,,,,,80,3
75,F,B,Raw,Yes,Open,Maria Kalistratova,,1991-05-29,71.2,,,,,75,77.5,-80,77.5,,,,,,,77.5,4
75,F,B,Raw,Yes,Masters 40-49,Olena Rindya,Олена Риндя,1977-04-29,70.6,,,,,80,-86,-86,80,,,,,,,80,1
56,M,B,Raw,Yes,Open,Vitaliy Evtushok,Віталій Євтушок,1993-01-20,54.05,,,,,-110,110,-120,110,,,,,,,110,1
56,M,B,Raw,Yes,Open,Vitaliy Churuta,Віталій Чурута,1992-09-18,55.6,,,,,-95,-95,-102.2,,,,,,,,,DQ
67.5,M,B,Raw,Yes,Teen 18-19,Ruslan Ivanchik,Руслан Іванчик,1999-08-09,66.65,,,,,115,-121,-121,115,,,,,,,115,1
67.5,M,B,Raw,Yes,Teen 18-19,Vitaliy Serbin,Віталій Сербин,1999-09-14,65.55,,,,,90,-95,-95,90,,,,,,,90,2
67.5,M,B,Raw,Yes,Juniors 20-23,Andriy Kurachov,Андрій Курачов,1996-03-18,67.25,,,,,105,-110,-112.5,105,,,,,,,105,1
67.5,M,B,Raw,Yes,Open,Vitaliy Pavlushko,Виталий Павлушко,1985-07-19,65.15,,,,,127.5,135,-140,135,,,,,,,135,1
67.5,M,B,Raw,Yes,Open,Ruslan Ivanchik,Руслан Іванчик,1999-08-09,66.65,,,,,115,-121,-121,115,,,,,,,115,2
67.5,M,B,Raw,Yes,Open,Sergiy Rogoviy,Сергій Роговий,1987-05-07,65.95,,,,,100,-105,-105,100,,,,,,,100,3
75,M,B,Raw,Yes,Teen 13-15,Vadim Zarudnitskiy,Вадим Зарудницький,2003-07-14,69.6,,,,,70,75,-80,75,,,,,,,75,1
75,M,B,Raw,Yes,Teen 13-15,Ruslan Klimenko,Руслан Клименко,2002-05-24,71.15,,,,,-67.5,-67.5,-67.5,,,,,,,,,DQ
75,M,B,Raw,Yes,Teen 16-17,Oleg Zon,Олег Зонь,2000-06-14,72.65,,,,,117.5,125,135,135,,,,,,,135,1
75,M,B,Raw,Yes,Teen 16-17,Yaroslav Slutskiy,Ярослав Слуцький,2001-01-24,74.8,,,,,100,-110,-110,100,,,,,,,100,2
75,M,B,Raw,Yes,Juniors 20-23,Evgeniy Sokolenko,Євгеній Соколенко,1997-03-22,74.95,,,,,120,125,-130,125,,,,,,,125,1
75,M,B,Raw,Yes,Open,Evgeniy Boloban,Євгеній Болобан,1996-08-28,73.6,,,,,-172.5,172.5,180,180,185.5,,,,,,180,1
75,M,B,Raw,Yes,Open,Yakiv Goldenberg,Яків Гольденберг,1964-01-06,72.15,,,,,140,-147.5,151,151,,,,,,,151,2
75,M,B,Raw,Yes,Masters 50-59,Yakiv Goldenberg,Яків Гольденберг,1964-01-06,72.15,,,,,140,-147.5,151,151,,,,,,,151,1
82.5,M,B,Raw,Yes,Juniors 20-23,Volodimir Getman,Володимир Гетьман,1995-02-07,79.7,,,,,150,-155,-155,150,,,,,,,150,1
82.5,M,B,Raw,Yes,Juniors 20-23,Oleksandr Pilipenko,Олександр Пилипенко,1994-04-17,79.6,,,,,115,-117.5,-117.5,115,,,,,,,115,2
82.5,M,B,Raw,Yes,Juniors 20-23,Roman Nikolin,Роман Ніколін,1994-12-05,80.2,,,,,-160,-160,-160,,,,,,,,,DQ
82.5,M,B,Raw,Yes,Open,Volodimir Lagoda,Володимир Лагода,1968-12-04,81.65,,,,,165,-170,-170,165,,,,,,,165,4
82.5,M,B,Raw,Yes,Open,Volodimir Galeta,Володимир Галета,1964-01-11,82,,,,,90,95,-100,95,,,,,,,95,5
82.5,M,B,Raw,Yes,Open,Anton Palyanichko,Антон Паляничко,1984-12-03,82.5,,,,,47.5,-50,50,50,,,,,,,50,6
82.5,M,B,Raw,Yes,Masters 40-49,Volodimir Lagoda,Володимир Лагода,1968-12-04,81.65,,,,,165,-170,-170,165,,,,,,,165,1
82.5,M,B,Raw,Yes,Masters 50-59,Viktor Polovko,Віктор Половко,1962-01-26,80.9,,,,,107.5,112.5,-115,112.5,,,,,,,112.5,1
82.5,M,B,Raw,Yes,Masters 50-59,Volodimir Galeta,Володимир Галета,1964-01-11,82,,,,,90,95,-100,95,,,,,,,95,1
82.5,M,B,Raw,Yes,Masters 60-69,Oleksandr Ostrovskiy,Олександр Островський,1953-02-10,80.8,,,,,85,95,100,100,,,,,,,100,1
82.5,M,B,Raw,Yes,Masters 70-79,Yuriy Starkov,Юрий Старков,1947-09-01,81.65,,,,,100,105,110,110,,,,,,,110,1
90,M,B,Raw,Yes,Teen 13-15,Oleksandr Bilozor,Олександр Білозор,2001-11-20,87.9,,,,,80,92.5,100,100,,,,,,,100,1
90,M,B,Raw,Yes,Teen 16-17,Mikola Rudiy,Микола Рудий,2000-12-19,87.45,,,,,92.5,97.5,-100,97.5,,,,,,,97.5,1
90,M,B,Raw,Yes,Juniors 20-23,Rostislav Fortuna,Ростислав Фортуна,1996-07-30,86.75,,,,,140,145,147.5,147.5,,,,,,,147.5,1
90,M,B,Raw,Yes,Juniors 20-23,Oleksandr Kryachok,Олександр Крячок,1996-06-06,90,,,,,130,135,140,140,,,,,,,140,2
90,M,B,Raw,Yes,Open,Viktor Borinets,Віктор Боринец,1989-07-15,88.45,,,,,-175,180,-185,180,,,,,,,180,4
90,M,B,Raw,Yes,Open,Sergey Kakhanchik,,1986-09-19,89,,,,,165,170,-175,170,,,,,,,170,6
90,M,B,Raw,Yes,Masters 40-49,Sergiy Zolkin,Сергій Золкін,1970-08-04,87,,,,,115,120,122.5,122.5,,,,,,,122.5,1
90,M,B,Raw,Yes,Masters 50-59,Igor Plotnikov,Ігор Плотніков,1966-06-15,88.3,,,,,110,115,-120,115,,,,,,,115,1
100,M,B,Raw,Yes,Teen 13-15,Yaroslav Gavyada,Ярослав Гав'Яда,2003-02-18,95.1,,,,,-95,-100,-100,,,,,,,,,DQ
100,M,B,Raw,Yes,Open,Andriy Petruk,Андрій Петрук,1975-01-15,97.95,,,,,185,192.5,-195,192.5,,,,,,,192.5,4
100,M,B,Raw,Yes,Open,Sergiy Kafelinos,Сергій Кафелінос,1977-07-16,97.75,,,,,180,190,-195,190,,,,,,,190,5
100,M,B,Raw,Yes,Open,Volodimir Kutoviy,Володимир Кутовий,1972-07-29,98.5,,,,,190,-195,-195,190,,,,,,,190,6
100,M,B,Raw,Yes,Open,Dmitro Fedorenko,Дмитро Федоренко,1992-09-15,98.85,,,,,-180,-180,180,180,,,,,,,180,8
100,M,B,Raw,Yes,Open,Andriy Levitskiy,Андрій Левицький,1988-06-04,96.3,,,,,175,-185,-185,175,,,,,,,175,9
100,M,B,Raw,Yes,Open,Vitaliy Zinchenko,Віталій Зінченко,1980-03-28,93.3,,,,,-180,-180,-182.5,,,,,,,,,DQ
100,M,B,Raw,Yes,Masters 40-49,Andriy Petruk,Андрій Петрук,1975-01-15,97.95,,,,,185,192.5,-195,192.5,,,,,,,192.5,1
100,M,B,Raw,Yes,Masters 40-49,Sergiy Kafelinos,Сергій Кафелінос,1977-07-16,97.75,,,,,180,190,-195,190,,,,,,,190,1
100,M,B,Raw,Yes,Masters 40-49,Volodimir Kutoviy,Володимир Кутовий,1972-07-29,98.5,,,,,190,-195,-195,190,,,,,,,190,2
100,M,B,Raw,Yes,Masters 40-49,Yuriy Shcherbina,Юрій Щербина,1968-12-02,98.8,,,,,-160,162.5,165,165,,,,,,,165,2
100,M,B,Raw,Yes,Masters 40-49,Igor Krikunov,Ігор Крикунов,1968-08-18,98.25,,,,,155,160,-162.5,160,,,,,,,160,3
100,M,B,Raw,Yes,Masters 50-59,Volodimir Kolomiets,Володимир Коломіець,1966-05-09,100,,,,,130,140,145,145,,,,,,,145,1
110,M,B,Raw,Yes,Open,Sergiy Dromov,Сергій Дрьомов,1968-10-11,108.7,,,,,200,-207.5,207.5,207.5,,,,,,,207.5,3
110,M,B,Raw,Yes,Open,Sergiy Radchenko,Сергій Радченко,1989-03-27,104.2,,,,,-160,-167.5,-167.5,,,,,,,,,DQ
110,M,B,Raw,Yes,Masters 40-49,Sergiy Dromov,Сергій Дрьомов,1968-10-11,108.7,,,,,200,-207.5,207.5,207.5,,,,,,,207.5,1
110,M,B,Raw,Yes,Masters 40-49,Ustim Antonenko,Устим Антоненко,1972-05-14,105.7,,,,,-170,175,180,180,,,,,,,180,2
110,M,B,Raw,Yes,Masters 40-49,Oleksiy Glatman,Олексій Глатман,1973-07-25,104.95,,,,,130,137.5,-142.5,137.5,,,,,,,137.5,4
110,M,B,Raw,Yes,Masters 40-49,Yuriy Voloshin,Юрій Волошин,1976-11-30,103.6,,,,,-175,-175,-175,,,,,,,,,DQ
110,M,B,Raw,Yes,Masters 50-59,Anatoliy Tiroshko,Анатолій Тирошко,1966-08-24,105.85,,,,,155,-160,-160,155,,,,,,,155,2
125,M,B,Raw,Yes,Open,Igor Zaychuk,Ігор Зайчук,1989-12-02,115.55,,,,,195,202.5,-207.5,202.5,,,,,,,202.5,3
125,M,B,Raw,Yes,Open,Andriy Voloshinenko,Андрій Волошиненко,1980-08-03,118.1,,,,,167.5,177.5,-185,177.5,,,,,,,177.5,5
125,M,B,Raw,Yes,Open,Oleksandr Tertichniy,Олександр Тертичний,1968-10-30,110.8,,,,,185,192.5,200,200,,,,,,,200,4
125,M,B,Raw,Yes,Masters 40-49,Oleksandr Tertichniy,Олександр Тертичний,1968-10-30,110.8,,,,,185,192.5,200,200,,,,,,,200,1
140,M,B,Raw,Yes,Open,Oleksandr Grigorenko,Олександр Григоренко,1982-04-20,134.7,,,,,180,190,195,195,,,,,,,195,1
140,M,B,Raw,Yes,Open,Grigoriy Barannik,Григорій Бараннік,1990-05-09,126,,,,,150,160,,160,,,,,,,160,3
44,F,D,Raw,Yes,Youth,Tetyana Korostel,Тетяна Коростель,2007-01-07,23.95,,,,,,,,,,45,55,60,60,,60,1
44,F,D,Raw,Yes,Open,Oksana Usatyuk,Оксана Усатюк,1993-03-12,43.2,,,,,,,,,,-95,-95,-95,,,,DQ
52,F,D,Raw,Yes,Open,Mariya Koshil,Марія Кошиль,1978-03-21,51.15,,,,,,,,,,117.5,125,-135,125,,125,1
52,F,D,Raw,Yes,Open,Lyudmila Mutovkina,Людмила Мутовкіна,1981-02-07,52,,,,,,,,,,-90,-95,95,95,,95,2
56,F,D,Raw,Yes,Open,Oleksandra Astakhova,Олександра Астахова,1990-12-16,54.25,,,,,,,,,,135,140.5,-146,140.5,,140.5,1
56,F,D,Raw,Yes,Open,Olesya Kiyan,Олеся Киян,1990-04-10,55.2,,,,,,,,,,117.5,125,127.5,127.5,,127.5,2
56,F,D,Raw,Yes,Open,Tetyana Stronska,Тетяна Стронська,1984-09-19,55.8,,,,,,,,,,110,117.5,125,125,,125,3
56,F,D,Raw,Yes,Masters 40-49,Svitlana Kravchenko,Світлана Кравченко,1971-05-11,53.45,,,,,,,,,,90,95,-97.5,95,,95,1
60,F,D,Raw,Yes,Open,Nataliya Sokurenko,Наталія Сокуренко,1981-01-12,57.85,,,,,,,,,,135,145,-150,145,,145,1
67.5,F,D,Raw,Yes,Open,Katerina Filipova,Катерина Філіпова,1984-06-25,66.5,,,,,,,,,,115,122.5,127.5,127.5,,127.5,1
75,F,D,Raw,Yes,Juniors 20-23,Polina Yakimets,Поліна Якимець,1994-12-16,68.8,,,,,,,,,,120,130,140,140,,140,1
75,F,D,Raw,Yes,Open,Maria Kalistratova,,1991-05-29,71.2,,,,,,,,,,140,147.5,-152.5,147.5,,147.5,1
75,F,D,Raw,Yes,Open,Polina Yakimets,Поліна Якимець,1994-12-16,68.8,,,,,,,,,,120,130,140,140,147.5,140,2
67.5,M,D,Raw,Yes,Teen 18-19,Ruslan Ivanchik,Руслан Іванчик,1999-08-09,66.65,,,,,,,,,,160,170,-185,170,,170,1
67.5,M,D,Raw,Yes,Juniors 20-23,Andriy Kurachov,Андрій Курачов,1996-03-18,67.25,,,,,,,,,,180,190,200,200,,200,1
67.5,M,D,Raw,Yes,Juniors 20-23,Oleksandr Onishchenko,Олександр Оніщенко,1996-03-05,65.2,,,,,,,,,,145,160,170,170,,170,2
67.5,M,D,Raw,Yes,Open,Sergiy Kalchuk,Сергій Кальчук,1989-06-29,67.05,,,,,,,,,,160,170,180,180,,180,1
67.5,M,D,Raw,Yes,Open,Sergiy Rogoviy,Сергій Роговий,1987-05-07,65.95,,,,,,,,,,130,-140,-140,130,,130,2
75,M,D,Raw,Yes,Teen 16-17,Stanislav Tsivina,Станіслав Цівина,2000-01-17,69.05,,,,,,,,,,150,160,-170,160,,160,1
75,M,D,Raw,Yes,Teen 18-19,Mikhaylo Yurchenko,Михайло Юрченко,1999-01-02,68.3,,,,,,,,,,232.5,-240,-240,232.5,,232.5,2
75,M,D,Raw,Yes,Teen 18-19,Bogdan Ben,Богдан Бень,1999-01-07,73.45,,,,,,,,,,210,225,-237.5,225,,225,3
75,M,D,Raw,Yes,Teen 18-19,Ruslan Tikhonenko,Руслан Тихоненко,1998-06-17,72.8,,,,,,,,,,190,-200,-202.5,190,,190,4
75,M,D,Raw,Yes,Juniors 20-23,Oleg Zhuchkov,Олег Жучков,1994-03-18,73.55,,,,,,,,,,245,-255,265,265,-273,265,1
75,M,D,Raw,Yes,Juniors 20-23,Viktor Pirig,Віктор Пиріг,1996-04-22,74.85,,,,,,,,,,170,190,207.5,207.5,,207.5,2
75,M,D,Raw,Yes,Juniors 20-23,Dmitro Solonenko,Дмитро Солоненко,1994-06-11,71.8,,,,,,,,,,180,190,200,200,,200,3
75,M,D,Raw,Yes,Juniors 20-23,Dmitro Dovgiy,Дмитро Довгий,1994-05-29,73.75,,,,,,,,,,160,175,187.5,187.5,,187.5,4
75,M,D,Raw,Yes,Open,Valentin Gontar,Валентин Гонтар,1987-09-26,73.65,,,,,,,,,,240,247.5,-252.5,247.5,,247.5,1
75,M,D,Raw,Yes,Masters 40-49,Yaroslav Panchenko,Ярослав Панченко,1977-08-14,73.95,,,,,,,,,,-205,205,-215,205,,205,1
82.5,M,D,Raw,Yes,Juniors 20-23,Oleksandr Pashkovets,Олександр Пашковець,1997-02-03,79.85,,,,,,,,,,-225,230,240,240,,240,2
82.5,M,D,Raw,Yes,Juniors 20-23,Volodimir Galiga,Володимир Галига,1997-01-07,80.2,,,,,,,,,,215,225,230,230,,230,3
82.5,M,D,Raw,Yes,Juniors 20-23,Oleg Litvinenko,Олег Литвиненко,1995-03-25,79.85,,,,,,,,,,170,215,-225,215,,215,4
82.5,M,D,Raw,Yes,Juniors 20-23,Volodimir Ivasyutin,Володимир Івасютин,1995-07-27,76.4,,,,,,,,,,200,-210,210,210,,210,5
82.5,M,D,Raw,Yes,Juniors 20-23,Oleksandr Pilipenko,Олександр Пилипенко,1994-04-17,79.6,,,,,,,,,,185,197.5,-202.5,197.5,,197.5,7
82.5,M,D,Raw,Yes,Juniors 20-23,Volodimir Getman,Володимир Гетьман,1995-02-07,79.7,,,,,,,,,,190,200,-205,200,,200,6
82.5,M,D,Raw,Yes,Open,Oleg Litvinenko,Олег Литвиненко,1995-03-25,79.85,,,,,,,,,,170,215,-225,215,,215,2
82.5,M,D,Raw,Yes,Masters 50-59,Volodimir Galeta,Володимир Галета,1964-01-11,82,,,,,,,,,,145,155,165,165,,165,1
82.5,M,D,Raw,Yes,Masters 60-69,Oleksandr Ostrovskiy,Олександр Островський,1953-02-10,80.8,,,,,,,,,,160,170,177.5,177.5,,177.5,1
82.5,M,D,Raw,Yes,Masters 70-79,Yuriy Starkov,Юрий Старков,1947-09-01,81.65,,,,,,,,,,200,210,220,220,,220,1
90,M,D,Raw,Yes,Juniors 20-23,Vladislav Fartushniy,Владислав Фартушний,1997-08-03,83.75,,,,,,,,,,225,235,-245,235,,235,1
90,M,D,Raw,Yes,Juniors 20-23,Oleksandr Kryachok,Олександр Крячок,1996-06-06,90,,,,,,,,,,235,-247.5,-262.5,235,,235,1
90,M,D,Raw,Yes,Open,Evgeniy Levkovskiy,Євгеній Левковский,1990-02-19,88.25,,,,,,,,,,220,245,,245,,245,1
90,M,D,Raw,Yes,Open,Dmitro Dovbish,Дмитро Довбиш,1988-07-02,87.1,,,,,,,,,,210,220,230,230,,230,2
90,M,D,Raw,Yes,Masters 40-49,Viktor Poshtarenko,Віктор Поштаренко,1970-02-06,88.35,,,,,,,,,,-215,215,232.5,232.5,235,232.5,1
90,M,D,Raw,Yes,Masters 40-49,Oleksandr Drobilko,Олександр Дробілко,1972-11-13,86.65,,,,,,,,,,200,210,-212.5,210,,210,1
90,M,D,Raw,Yes,Masters 50-59,Genadiy Ostrovskiy,Генадій Островський,1965-01-08,86.1,,,,,,,,,,200,-207.5,,200,,200,1
100,M,D,Raw,Yes,Teen 13-15,Yaroslav Gavyada,Ярослав Гав'Яда,2003-02-18,95.1,,,,,,,,,,190,200,210,210,,210,1
100,M,D,Raw,Yes,Juniors 20-23,Dmitro Nikolaev,Дмитро Ніколаєв,1996-09-11,94.65,,,,,,,,,,250,270,-280,270,,270,1
100,M,D,Raw,Yes,Open,Dmitro Prosvirin,Дмитро Просвірін,1986-09-09,95.4,,,,,,,,,,285,295,305,305,,305,2
100,M,D,Raw,Yes,Open,Evgeniy Ivanets,Євгеній Іванець,1995-10-02,97.25,,,,,,,,,,270,280,-290,280,,280,4
100,M,D,Raw,Yes,Open,Andriy Levitskiy,Андрій Левицький,1988-06-04,96.3,,,,,,,,,,-230,230,-242.5,230,,230,5
100,M,D,Raw,Yes,Open,Eduard Gusev,Едуард Гусєв,1990-07-27,99.75,,,,,,,,,,220,230,-240,230,,230,6
100,M,D,Raw,Yes,Masters 50-59,Volodimir Kolomiets,Володимир Коломіець,1966-05-09,100,,,,,,,,,,-202.5,202.5,215,215,,215,1
110,M,D,Raw,Yes,Juniors 20-23,Mikhaylo Savenko,Михайло Савенко,1996-04-25,102.8,,,,,,,,,,300,307.5,-310,307.5,,307.5,1
110,M,D,Raw,Yes,Open,Mikhaylo Savenko,Михайло Савенко,1996-04-25,102.8,,,,,,,,,,300,307.5,-310,307.5,,307.5,2
110,M,D,Raw,Yes,Open,Ivan Khashchevatskiy,Іван Хащевацький,1992-11-17,108.5,,,,,,,,,,210,220,-230,220,,220,4
125,M,D,Raw,Yes,Open,Igor Zaychuk,Ігор Зайчук,1989-12-02,115.55,,,,,,,,,,292.5,312.5,-320,312.5,,312.5,1
140,M,D,Raw,Yes,Teen 16-17,Oles Petrenko,Олесь Петренко,2000-03-29,130.4,,,,,,,,,,180,190,200,200,,200,1
140,M,D,Raw,Yes,Open,Grigoriy Barannik,Григорій Бараннік,1990-05-09,126,,,,,,,,,,245,260,267.5,267.5,,267.5,1
125,M,D,Multi-ply,Yes,Open,Bebiashvili Shalva,,1987-01-05,117.95,,,,,,,,,,-240,240,250,250,,250,1
67.5,F,SBD,Raw,No,Open,Svitlana Glatman,Світлана Глатман,1981-09-05,62.1,130,-137.5,137.5,137.5,62.5,67.5,-70,67.5,,130,137.5,-145,137.5,,342.5,1
75,M,SBD,Raw,No,Teen 16-17,Mertsi Vano,,2000-09-03,70.95,-120,120,150,150,60,70,-80,70,,140,165,180,180,,400,1
75,M,SBD,Raw,No,Open,Mikola Belozorov,Микола Белозьоров,1982-12-16,73.75,-200,-200,200,200,120,125,-127.5,125,,235,-245,-245,235,,560,1
82.5,M,SBD,Raw,No,Open,Evgen Konovalov,Євген Коновалов,1987-09-08,81,190,200,210,210,140,-145,-145,140,,220,235,-240,235,,585,1
82.5,M,SBD,Raw,No,Open,Pavlo Kubrak,Павло Кубрак,1976-07-14,81.7,-180,180,-190,180,107.5,-115,-117.5,107.5,,190,205,225,225,,512.5,2
82.5,M,SBD,Raw,No,Masters 40-49,Pavlo Kubrak,Павло Кубрак,1976-07-14,81.7,-180,180,-190,180,107.5,-115,-117.5,107.5,,190,205,225,225,,512.5,1
90,M,SBD,Raw,No,Teen 18-19,Pavlo Prudskiy,Павло Прудський,1998-07-10,88.45,200,215,-225,215,135,145,-152.5,145,,220,-240,-240,220,,580,1
90,M,SBD,Raw,No,Open,Mikola Tishuk,Микола Тишук,1992-03-12,88.3,250,-270,-270,250,140,150,160,160,,255,-265,,255,,665,1
90,M,SBD,Raw,No,Open,Vadim Yaroslavskiy,Вадим Ярославський,1984-06-05,90,220,235,250,250,130,145,160,160,,-200,200,230,230,,640,2
100,M,SBD,Raw,No,Juniors 20-23,Sergiy Plotnikov,Сергій Плотніков,1995-01-08,99.5,250,265,277.5,277.5,165,175,180,180,,245,262.5,267.5,267.5,,725,1
100,M,SBD,Raw,No,Juniors 20-23,Nicalai Solta,,1995-11-27,98.8,-215,215,-225,215,170,175,-177.5,175,,245,250,255,255,,645,2
100,M,SBD,Raw,No,Open,Mikhaylo Zhelyazkov,Михайло Желязков,1980-09-12,98.4,315,325,335,335,180,185,,185,,320,330,-340,330,,850,1
100,M,SBD,Raw,No,Open,Sergiy Plotnikov,Сергій Плотніков,1995-01-08,99.5,250,265,277.5,277.5,165,175,180,180,,245,262.5,267.5,267.5,,725,2
100,M,SBD,Raw,No,Open,Viktor Rublyov,Віктор Рубльов,1975-10-26,98.65,-265,270,280,280,-175,175,-182.5,175,,255,-265,265,265,,720,3
100,M,SBD,Raw,No,Masters 40-49,Viktor Rublyov,Віктор Рубльов,1975-10-26,98.65,-265,270,280,280,-175,175,-182.5,175,,255,-265,265,265,,720,1
110,M,SBD,Raw,No,Open,Mikita Eyrushevich,Микита Ейрушевич,1989-06-30,109.3,290,-310,310,310,185,-190,,185,,-270,285,-307.5,285,,780,1
110,M,SBD,Raw,No,Open,Evgeniy Rudnik,Євгеній Руднік,1978-03-01,106.95,240,-280,280,280,180,-200,,180,,280,-310,,280,,740,2
110,M,SBD,Raw,No,Open,Igor Emelianov,,1993-08-15,107.5,-220,,,,,,,,,,,,,,,DQ
110,M,SBD,Raw,No,Masters 40-49,Mamuka Gegidze,,1974-03-23,108,160,180,200,200,140,-150,-150,140,,200,230,240,240,,580,1
110,M,SBD,Raw,No,Masters 40-49,Igor Emelianov,,1975-11-25,107.5,-220,,,,,,,,,,,,,,,DQ
125,M,SBD,Raw,No,Open,Denis Alekseenko,Денис Алексеєнко,1993-08-15,123,170,182.5,-190,182.5,130,-140,-140,130,,180,200,-220,200,,512.5,2
67.5,M,BD,Raw,No,Teen 18-19,Besiki Kochiashvil,,1999-07-15,62.45,,,,,70,85,92.5,92.5,,110,120,135,135,,227.5,2
82.5,M,BD,Raw,No,Teen 16-17,Giorgi Lortkipanidze,,2001-03-11,78.35,,,,,-85,85,100,100,,140,160,175,175,,275,1
82.5,M,BD,Raw,No,Open,Eugene Lukyanov,,1980-08-11,82.2,,,,,165,170,-175,170,,210,220,230,230,,400,1
100,M,BD,Raw,No,Teen 16-17,Nika Diasamidze,,2001-11-04,95.9,,,,,85,100,-110,100,,160,180,200,200,,300,1
110,M,BD,Raw,No,Masters 40-49,Datuna Mzhavanadze,,1972-05-14,104.35,,,,,170,185,195,195,-202.5,230,250,-265,250,,445,1
110,M,BD,Raw,No,Masters 50-59,Vladimir Lukyanov,,1966-02-18,101.45,,,,,120,130,,130,,250,260,270,270,,400,1
125,M,BD,Raw,No,Open,Oleksandr Tarasov,Олександр Тарасов,1991-10-27,116.35,,,,,-210,210,-222.5,210,,280,-300,-300,280,,490,2
125,M,BD,Raw,No,Open,Shalva Bebiashvili,,1987-01-05,117.95,,,,,-160,160,170,170,,-240,240,250,250,,420,3
100,M,BD,Multi-ply,No,Open,Yuriy Kostenko,Юрій Костенко,1971-07-28,99,,,,,185,195,200,200,,-237.5,242.5,275,275,,475,1
100,M,BD,Multi-ply,No,Masters 40-49,Yuriy Kostenko,Юрій Костенко,1971-07-28,99,,,,,185,195,200,200,,-237.5,242.5,275,275,,475,1
110,M,BD,Multi-ply,No,Open,Andriy Romanchuk,Андрій Романчук,1976-12-27,104,,,,,160,167.5,175,175,,260,-280,280,280,,455,1
110,M,BD,Multi-ply,No,Masters 40-49,Andriy Romanchuk,Андрій Романчук,1976-12-27,104,,,,,160,167.5,175,175,,260,-280,280,280,,455,1
60,F,B,Raw,No,Open,Eteri Kumsishvili,,1984-02-17,57.85,,,,,60,70,-80,70,,,,,,,70,2
82.5,M,B,Raw,No,Open,Giorgi Kavtaradze,,1994-11-02,82.3,,,,,220,-230,230,230,-240.5,,,,,,230,1
82.5,M,B,Raw,No,Open,Vadim Marinich,Вадим Маринич,1981-08-31,81.8,,,,,180,185,-192.5,185,,,,,,,185,2
82.5,M,B,Raw,No,Open,Eugene Lukyanov,,1980-08-11,82.2,,,,,165,170,-175,170,,,,,,,170,3
90,M,B,Raw,No,Open,Alexander Shcherbakov,,1966-07-28,88.95,,,,,202.5,210,-220,210,,,,,,,210,1
90,M,B,Raw,No,Open,Serhiy Khamytsevych,,1987-01-01,88.7,,,,,200,207.5,-210,207.5,,,,,,,207.5,2
90,M,B,Raw,No,Open,Oleksiy Bronishevskiy,Олексій Бронішевський,1988-03-26,86.6,,,,,190,-200,200,200,,,,,,,200,3
90,M,B,Raw,No,Open,Gocha Batsiashvili,,1981-02-23,88.5,,,,,170,180,-185,180,,,,,,,180,5
90,M,B,Raw,No,Open,Vitaliy Gonetskiy,Віталій Гонецький,1978-08-07,88.95,,,,,-175,-175,-175,,,,,,,,,DQ
100,M,B,Raw,No,Juniors 20-23,Sergiy Plotnikov,Сергій Плотніков,1995-01-08,99.5,,,,,165,175,180,180,,,,,,,180,1
100,M,B,Raw,No,Juniors 20-23,Nicalai Solta,,1995-11-27,98.8,,,,,170,175,-177.5,175,,,,,,,175,2
100,M,B,Raw,No,Open,Denis Bunchuk,Денис Бунчук,1989-07-09,95.95,,,,,235,247.5,-250,247.5,,,,,,,247.5,1
100,M,B,Raw,No,Open,Ruslan Sidorenko,Руслан Сидоренко,1987-07-06,98.05,,,,,-200,205,210,210,,,,,,,210,2
100,M,B,Raw,No,Open,Igor Danilov,Игорь Данилов,1985-11-27,95.35,,,,,-200,-205,205,205,,,,,,,205,3
100,M,B,Raw,No,Open,Andrey Zemlyakov,,1991-06-24,98.05,,,,,175,180,185,185,,,,,,,185,7
100,M,B,Raw,No,Masters 40-49,Yuriy Kostenko,Юрій Костенко,1971-07-28,99,,,,,175,182.5,-185,182.5,,,,,,,182.5,1
100,M,B,Raw,No,Masters 40-49,Viktor Rublyov,Віктор Рубльов,1975-10-26,98.65,,,,,-175,175,-182.5,175,,,,,,,175,3
110,M,B,Raw,No,Open,Andriy Romanko,Андрій Романко,1975-08-24,100.35,,,,,200,220,225,225,,,,,,,225,1
110,M,B,Raw,No,Open,Dmitro Berest,Дмитро Берест,1985-07-02,106.5,,,,,-195,215,222.5,222.5,,,,,,,222.5,2
110,M,B,Raw,No,Open,Sergiy Shepel,Сергій Шепель,1983-03-28,104,,,,,170,185,-195,185,,,,,,,185,4
110,M,B,Raw,No,Masters 40-49,Andriy Romanko,Андрій Романко,1975-08-24,100.35,,,,,200,220,225,225,,,,,,,225,1
110,M,B,Raw,No,Masters 40-49,Valery Bianko,,1974-04-15,109.35,,,,,160,-165,,160,,,,,,,160,3
110,M,B,Raw,No,Masters 50-59,Oleksandr Kostirya,Олександр Костиря,1963-11-01,105.75,,,,,170,175,-180,175,,,,,,,175,1
110,M,B,Raw,No,Masters 50-59,Vladimir Lukyanov,,1966-02-18,101.45,,,,,120,130,,130,,,,,,,130,3
125,M,B,Raw,No,Open,Volodimir Rindya,Володимир Риндя,1975-08-03,120.5,,,,,217.5,222.5,-227.5,222.5,,,,,,,222.5,1
125,M,B,Raw,No,Open,Oleksandr Tarasov,Олександр Тарасов,1991-10-27,116.35,,,,,-210,210,-222.5,210,,,,,,,210,2
125,M,B,Raw,No,Masters 40-49,Volodimir Rindya,Володимир Риндя,1975-08-03,120.5,,,,,217.5,222.5,-227.5,222.5,,,,,,,222.5,1
125,M,B,Raw,No,Masters 40-49,Andriy Shlyama,Андрій Шляма,1976-04-20,118,,,,,200,210,-215,210,,,,,,,210,2
125,M,B,Raw,No,Masters 40-49,Oleksandr Poltarukha,Олександр Полтаруха,1973-06-23,113,,,,,-170,-170,-170,,,,,,,,,DQ
140,M,B,Raw,No,Open,Mikhaylo Shchegolev,Михайло Щеголев,1986-05-31,126.2,,,,,180,190,,190,,,,,,,190,2
90,M,B,Multi-ply,No,Open,Gocha Batsiashvili,,1981-02-23,88.5,,,,,170,180,-185,180,,,,,,,180,1
100,M,B,Multi-ply,No,Masters 40-49,Vitaliy Popov,,1977-10-30,97.35,,,,,-260,-260,-260,,,,,,,,,DQ
56,F,D,Raw,No,Teen 16-17,Anna Teslya,Анна Тесля,2000-06-19,54.75,,,,,,,,,,-110,120,130,130,,130,1
60,M,D,Raw,No,Teen 16-17,Bogdan Mironenko,Богдан Мироненко,2001-07-31,60,,,,,,,,,,140,150,160,160,,160,1
75,M,D,Raw,No,Teen 18-19,Anatoliy Starostenko,Анатолій Старостенко,1999-04-14,71.15,,,,,,,,,,217.5,225,237.5,237.5,,237.5,1
75,M,D,Raw,No,Open,Mikola Belozorov,Микола Белозьоров,1982-12-16,73.75,,,,,,,,,,235,-245,-245,235,,235,2
82.5,M,D,Raw,No,Juniors 20-23,Andriy Martinevich,Андрій Мартиневич,1993-11-27,80.5,,,,,,,,,,220,240,250,250,,250,1
82.5,M,D,Raw,No,Open,Evgen Konovalov,Євген Коновалов,1987-09-08,81,,,,,,,,,,220,235,-240,235,,235,1
90,M,D,Raw,No,Teen 18-19,Pavlo Prudskiy,Павло Прудський,1998-07-10,88.45,,,,,,,,,,220,-240,-240,220,,220,2
100,M,D,Raw,No,Juniors 20-23,Sergiy Plotnikov,Сергій Плотніков,1995-01-08,99.5,,,,,,,,,,245,262.5,267.5,267.5,,267.5,2
100,M,D,Raw,No,Juniors 20-23,Nicalai Solta,,1995-11-27,98.8,,,,,,,,,,240,250,255,255,,255,3
100,M,D,Raw,No,Open,Mikhaylo Zhelyazkov,Михайло Желязков,1980-09-12,98.4,,,,,,,,,,320,330,-340,330,,330,1
100,M,D,Raw,No,Open,Oleg Yanovich,Олег Янович,1992-05-05,94.15,,,,,,,,,,270,-285,292.5,292.5,,292.5,3
100,M,D,Raw,No,Open,Evgeniy Yakovlev,Евгений Яковлев,1975-11-12,96.8,,,,,,,,,,-300,-300,-300,,,,DQ
100,M,D,Raw,No,Masters 40-49,Viktor Rublyov,Віктор Рубльов,1975-10-26,98.65,,,,,,,,,,255,-265,265,265,,265,1
110,M,D,Raw,No,Open,Seydu Togola Zhorzh,Сейду Тогола Жорж,1989-04-05,105.2,,,,,,,,,,320,327.5,-332.5,327.5,,327.5,1
110,M,D,Raw,No,Open,Evgeniy Rudnik,Євгеній Руднік,1978-03-01,106.95,,,,,,,,,,280,-310,,280,,280,3
110,M,D,Raw,No,Masters 50-59,Vladimir Lukyanov,,1966-02-18,101.45,,,,,,,,,,250,260,270,270,,270,1
125,M,D,Raw,No,Open,Oleksandr Tarasov,Олександр Тарасов,1991-10-27,116.35,,,,,,,,,,280,-300,-300,280,,280,2
110,M,D,Multi-ply,No,Open,Oleksandr Bayda,Олександр Байда,1982-04-17,105.9,,,,,,,,,,290,295,300,300,,300,1
