Place,Sex,Name,CyrillicName,BodyweightKg,Bench1Kg,Bench2Kg,Bench3Kg,Best3BenchKg,Bench4Kg,Deadlift1Kg,Deadlift2Kg,Deadlift3Kg,Best3DeadliftKg,Deadlift4Kg,TotalKg,WeightClassKg,Event,Equipment,Tested,Squat1Kg,Squat2Kg,Squat3Kg,Best3SquatKg,Squat4Kg,Division,Age,BirthDate
1,M,Aleksandr Konshin,Александр Коньшин,69.6,60,65,70,70,,110,120,130,130,,200,75,BD,Raw,Yes,,,,,,Amateur Teen 16-17,16,2003-04-10
1,M,Egor Medvedev,Егор Медведев,75,115,120,-130,120,,180,200,-210,200,,320,75,BD,Raw,Yes,,,,,,Amateur Open,29,1990-08-23
2,M,Ivan Shelepov,Иван Шелепов,75,100,-110,110,110,,180,-200,-200,180,,290,75,BD,Raw,Yes,,,,,,Amateur Open,24,1995-09-24
1,M,Evgeniy Fisher,Евгений Фишер,79.5,70,75,80,80,,137.5,147.5,155,155,,235,82.5,BD,Raw,Yes,,,,,,Amateur Teen 14-15,15,2004-03-04
1,M,Egor Komarov,Егор Комаров,75.9,65,-70,75,75,,107.5,115,120,120,,195,82.5,BD,Raw,Yes,,,,,,Amateur Teen 16-17,16,2003-02-16
1,M,Vladimir Zhatikov,Владимир Жатиков,80.9,135,140,-145,140,,220,230,240,240,,380,82.5,BD,Raw,Yes,,,,,,Amateur Open,28,1991-05-18
2,M,Andrey Sulimov,Андрей Сулимов,77.3,115,120,-122.5,120,,170,180,185,185,,305,82.5,BD,Raw,Yes,,,,,,Amateur Open,26,1992-12-04
DQ,M,Sergey Maltsev,Сергей Мальцев,77.8,-117.5,-122.5,-122.5,,,170,-175,-175,170,,,82.5,BD,Raw,Yes,,,,,,Amateur Open,28,1991-07-10
1,M,Ivan Volkov,Иван Волков,118,170,180,190,190,,200,215,230,230,,420,125,BD,Raw,Yes,,,,,,Amateur Open,31,1988-03-12
1,M,Stanislav Andrenkov,Станислав Андренков,80.9,,,,,,,,,,,180,82.5,S,Raw,No,180,-190,-195,180,,Pro Open,27,1992-07-08
1,F,Mariya Dyachkova,Мария Дьячкова,58.2,,,,,,,,,,,90,60,S,Raw,Yes,-90,90,-105,90,,Amateur Open,25,1994-03-28
1,F,Olga Radchenko,Ольга Радченко,67.3,,,,,,130,145,155,155,,155,67.5,D,Raw,No,,,,,,Pro Masters 40-44,41,1978-07-31
1,M,Yaroslav Chekin,Ярослав Чекин,81,,,,,,160,175,185,185,,185,82.5,D,Raw,No,,,,,,Pro Teen 16-17,17,2002-08-01
1,M,Stanislav Andrenkov,Станислав Андренков,80.9,,,,,,235,245,-255,245,,245,82.5,D,Raw,No,,,,,,Pro Open,27,1992-07-08
1,M,Timofey Chernyakov,Тимофей Черняков,88.6,,,,,,235,265,272.5,272.5,,272.5,90,D,Raw,No,,,,,,Pro Open,25,1993-12-16
1,M,Maksim Ivanov,Максим Иванов,96.9,,,,,,260,280,-290,280,,280,100,D,Raw,No,,,,,,Pro Open,30,1989-06-16
2,M,Evgeniy Sobolev,Евгений Соболев,92.5,,,,,,210,230,250,250,,250,100,D,Raw,No,,,,,,Pro Open,36,1983-06-24
3,M,Anton Cherdantsev,Антон Черданцев,96,,,,,,200,220,-232.5,220,,220,100,D,Raw,No,,,,,,Pro Open,36,1982-12-28
1,M,Ivan Yuzhakov,Иван Южаков,110,,,,,,275,-280,,275,,275,110,D,Raw,No,,,,,,Pro Open,24,1995-06-09
2,M,Roman Kochubey,Роман Кочубей,107,,,,,,240,250,-260,250,,250,110,D,Raw,No,,,,,,Pro Open,25,1994-02-17
DQ,M,Leonid Kozlenko,Леонид Козленко,114,,,,,,-260,,,,,,125,D,Raw,No,,,,,,Pro Open,21,1998-02-10
1,F,Mariya Koledenko,Мария Коледенко,44,,,,,,90,-102.5,-102.5,90,,90,44,D,Raw,Yes,,,,,,Amateur Juniors 20-23,22,1997-07-12
1,F,Alena Gerasimenko,Алена Герасименко,55.2,,,,,,110,-125,-125,110,,110,56,D,Raw,Yes,,,,,,Amateur Open,33,1986-08-01
1,F,Mariya Dyachkova,Мария Дьячкова,58.2,,,,,,-110,110,-120,110,,110,60,D,Raw,Yes,,,,,,Amateur Open,25,1994-03-28
1,F,Raisa Frolova,Раиса Фролова,73.8,,,,,,110,127.5,-145,127.5,,127.5,75,D,Raw,Yes,,,,,,Amateur Open,30,1989-07-10
1,F,Danila Zherebtsov,Данила Жеребцов,65.1,,,,,,135,145,-150,145,,145,67.5,D,Raw,Yes,,,,,,Amateur Teen 16-17,17,2002-05-27
2,M,Viktor Gauz,Виктор Гауз,63.6,,,,,,100,120,135,135,,135,67.5,D,Raw,Yes,,,,,,Amateur Teen 16-17,17,2002-08-19
1,M,Rustam Razumov,Рустам Разумов,66,,,,,,170,175,-180,175,,175,67.5,D,Raw,Yes,,,,,,Amateur Open,28,1990-12-13
1,M,Aleksandr Matyazh,Александр Матяж,72.5,,,,,,200,205,210,210,,210,75,D,Raw,Yes,,,,,,Amateur Open,30,1989-03-07
2,M,Egor Medvedev,Егор Медведев,75,,,,,,180,200,-210,200,,200,75,D,Raw,Yes,,,,,,Amateur Open,29,1990-08-23
3,M,Aleksandr Tomilin,Александр Томилин,70.8,,,,,,180,-192.5,-192.5,180,,180,75,D,Raw,Yes,,,,,,Amateur Open,28,1990-10-21
1,M,Egor Komarov,Егор Комаров,75.9,,,,,,107.5,115,120,120,,120,82.5,D,Raw,Yes,,,,,,Amateur Teen 16-17,16,2003-02-16
1,M,Evgeniy Batalov,Евгений Баталов,82.1,,,,,,217.5,235,247.5,247.5,,247.5,82.5,D,Raw,Yes,,,,,,Amateur Open,26,1993-07-18
2,M,Vladimir Zhatikov,Владимир Жатиков,80.9,,,,,,220,230,240,240,,240,82.5,D,Raw,Yes,,,,,,Amateur Open,28,1991-05-18
3,M,Vadim Makeev,Вадим Макеев,81,,,,,,215,225,240,240,,240,82.5,D,Raw,Yes,,,,,,Amateur Open,25,1993-12-10
4,M,Konstantin Mitichkin,Константин Митичкин,82,,,,,,170,175,180,180,,180,82.5,D,Raw,Yes,,,,,,Amateur Open,34,1985-04-19
5,M,Roman Chernyshev,Роман Чернышев,82.3,,,,,,155,165,-175,165,,165,82.5,D,Raw,Yes,,,,,,Amateur Open,34,1985-06-14
DQ,M,Evgeniy Samoylov,Евгений Самойлов,81.2,,,,,,-220,-220,-220,,,,82.5,D,Raw,Yes,,,,,,Amateur Open,30,1989-07-13
1,M,Vladimir Kamenev,Владимир Каменев,80,,,,,,140,150,-155,150,,150,82.5,D,Raw,Yes,,,,,,Amateur Masters 65-69,67,1952-06-23
1,M,Vladimir Senchukov,Владимир Сенчуков,86,,,,,,205,-215,-215,205,,205,90,D,Raw,Yes,,,,,,Amateur Open,37,1981-12-15
1,M,Nikolay Kozlov,Николай Козлов,108,,,,,,230,247.5,270,270,,270,110,D,Raw,Yes,,,,,,Amateur Open,29,1990-05-01
2,M,Amin Shabaev,Амин Шабаев,109,,,,,,220,230,242.5,242.5,,242.5,110,D,Raw,Yes,,,,,,Amateur Open,33,1986-10-09
3,M,Viktor Savelev,Виктор Савельев,103.3,,,,,,200,210,220,220,,220,110,D,Raw,Yes,,,,,,Amateur Open,26,1993-03-09
4,M,Sergey Limakov,Сергей Лимаков,103.7,,,,,,175,180,195,195,,195,110,D,Raw,Yes,,,,,,Amateur Open,33,1986-04-04
1,M,Sergey Kudryavtsev,Сергей Кудрявцев,65.9,170,-190,190,190,,,,,,,190,67.5,B,Multi-ply,No,,,,,,Pro Open,20,1999-02-09
1,M,Pavel Nikolovskiy,Павел Николовский,75,230,240,250,250,,,,,,,250,75,B,Multi-ply,No,,,,,,Pro Open,41,1978-05-08
1,M,Aleksey Verkhoturov,Алексей Верхотуров,87.9,250,260,270,270,,,,,,,270,90,B,Multi-ply,No,,,,,,Pro Open,36,1983-03-30
2,M,Kirill Kurilkin,Кирилл Курилкин,89.6,210,220,230,230,,,,,,,230,90,B,Multi-ply,No,,,,,,Pro Open,32,1987-07-29
1,M,Aleksandr Yakovlev,Александр Яковлев,92.2,260,270,277.5,277.5,,,,,,,277.5,100,B,Multi-ply,No,,,,,,Pro Open,36,1983-06-21
1,M,Vladimir Samoylov,Владимир Самойлов,101.5,320,340,360,360,,,,,,,360,110,B,Multi-ply,No,,,,,,Pro Open,28,1991-05-09
1,M,Andrey Teryokhin,Андрей Терёхин,128.6,250,260,-270,260,,,,,,,260,140,B,Multi-ply,No,,,,,,Pro Open,45,1973-10-22
1,M,Aleksandr Samoylik,Александр Самойлик,145.5,225,240,-250,240,,,,,,,240,140+,B,Multi-ply,No,,,,,,Pro Masters 40-44,44,1975-06-20
1,M,Mikhail Ishchechkin,Михаил Ищечкин,107.8,-205,205,-210,205,,,,,,,205,110,B,Multi-ply,Yes,,,,,,Amateur Masters 55-59,57,1962-01-22
1,M,Nikolay Molchan,Николай Молчан,119.3,230,240,250,250,,,,,,,250,125,B,Multi-ply,Yes,,,,,,Amateur Open,35,1984-01-24
1,M,Vladimir Veremey,Владимир Веремей,49.9,35,40,45,45,,,,,,,45,52,B,Raw,No,,,,,,Pro Teen 14-15,14,2005-10-19
2,M,Dmitriy Sobolev,Дмитрий Соболев,36.7,20,22.5,25,25,,,,,,,25,44,B,Raw,No,,,,,,Pro Teen 13,11,2008-06-17
3,M,Grigoriy Chervinskiy,Григорий Червинский,38.5,20,-22.5,-22.5,20,,,,,,,20,44,B,Raw,No,,,,,,Pro Teen 13,7,2012-05-31
1,M,Maksim Seryodkin,Максим Серёдкин,52,42.5,-45,45,45,,,,,,,45,52,B,Raw,No,,,,,,Pro Teen 14-15,15,2004-06-17
1,M,Vadim Kashin,Вадим Кашин,66.6,70,75,-80,75,,,,,,,75,67.5,B,Raw,No,,,,,,Pro Teen 14-15,14,2005-02-24
1,M,Pavel Žák,Павел Зак,74,137.5,150,157.5,157.5,,,,,,,157.5,75,B,Raw,No,,,,,,Pro Open,52,1967-05-27
1,M,Aleksandr Loginov,Александр Логинов,80.7,170,180,-190,180,,,,,,,180,82.5,B,Raw,No,,,,,,Pro Open,33,1986-06-10
1,M,Egor Zharov,Егор Жаров,90,180,190,-195,190,,,,,,,190,90,B,Raw,No,,,,,,Pro Open,32,1987-06-07
2,M,Pavel Shabin,Павел Шабин,88,150,160,-170,160,,,,,,,160,90,B,Raw,No,,,,,,Pro Open,35,1984-05-04
1,M,Evgeniy Reshetnikov,Евгений Решетников,85.2,145,155,,155,,,,,,,155,90,B,Raw,No,,,,,,Pro Masters 40-44,41,1978-02-23
1,M,Maksim Vodopyanov,Максим Водопьянов,100,180,200,207.5,207.5,,,,,,,207.5,100,B,Raw,No,,,,,,Pro Open,25,1994-05-17
2,M,Anatoliy Matyunin,Анатолий Матюнин,100,160,-170,,160,,,,,,,160,100,B,Raw,No,,,,,,Pro Open,33,1986-07-23
1,M,Aleksey Kislyanskiy,Алексей Кислянский,91.3,140,150,160,160,,,,,,,160,100,B,Raw,No,,,,,,Pro Masters 40-44,43,1976-07-20
2,M,Aleksandr Akhmetzyanov,Александр Ахметзянов,98.3,117.5,125,130,130,,,,,,,130,100,B,Raw,No,,,,,,Pro Masters 40-44,40,1979-03-21
1,M,Vladimir Samoylov,Владимир Самойлов,101.5,200,210,215,215,,,,,,,215,110,B,Raw,No,,,,,,Pro Open,28,1991-05-09
2,M,Imil Mazhitov,Имиль Мажитов,105,200,-207.5,,200,,,,,,,200,110,B,Raw,No,,,,,,Pro Open,26,1993-06-06
3,M,Ivan Denisov,Иван Денисов,107.9,140,-145,-150,140,,,,,,,140,110,B,Raw,No,,,,,,Pro Open,34,1984-10-27
1,F,Vita Chernysh,Вита Черныш,48,42.5,47.5,-50,47.5,,,,,,,47.5,48,B,Raw,Yes,,,,,,Amateur Open,32,1987-06-29
1,F,Maryam Mukharyamova,Марьям Мухарьямова,55,45,50,-52.5,50,,,,,,,50,56,B,Raw,Yes,,,,,,Amateur Open,30,1989-03-22
1,F,Alena Andronova,Алена Андронова,58.7,65,70,-77.5,70,,,,,,,70,60,B,Raw,Yes,,,,,,Amateur Open,33,1986-04-08
2,F,Elizaveta Zavgorodskaya,Елизавета Завгородская,58.7,55,-60,-60,55,,,,,,,55,60,B,Raw,Yes,,,,,,Amateur Open,25,1994-05-14
3,F,Marina Sulyanova,Марина Сульянова,58.9,45,-50,-50,45,,,,,,,45,60,B,Raw,Yes,,,,,,Amateur Open,31,1988-01-14
4,F,Oksana Sokolova,Оксана Соколова,60,42.5,45,-47.5,45,,,,,,,45,60,B,Raw,Yes,,,,,,Amateur Open,34,1985-06-21
1,F,Anastasiya Baklanova,Анастасия Бакланова,64,65,67.5,-72.5,67.5,,,,,,,67.5,67.5,B,Raw,Yes,,,,,,Amateur Teen 16-17,17,2002-07-19
1,F,Yuliya Ryadnova,Юлия Ряднова,65.5,65,70,-72.5,70,,,,,,,70,67.5,B,Raw,Yes,,,,,,Amateur Juniors 20-23,20,1999-10-19
2,F,Ekaterina Vorfolomeeva,Екатерина Ворфоломеева,66.3,55,65,-70,65,,,,,,,65,67.5,B,Raw,Yes,,,,,,Amateur Juniors 20-23,21,1998-09-16
1,F,Mariya Sokolova,Мария Соколова,71.8,60,-70,-70,60,,,,,,,60,75,B,Raw,Yes,,,,,,Amateur Teen 18-19,19,2000-09-18
1,F,Polina Rusakova,Полина Русакова,76.2,55,60,-65,60,,,,,,,60,82.5,B,Raw,Yes,,,,,,Amateur Teen 18-19,19,2000-07-20
1,F,Mariya Rusakova,Мария Русакова,90,97.5,102.5,-105,102.5,,,,,,,102.5,90,B,Raw,Yes,,,,,,Amateur Open,24,1995-01-30
1,M,Artem Nayman,Артем Найман,34,25,-27.5,27.5,27.5,,,,,,,27.5,44,B,Raw,Yes,,,,,,Amateur Teen 13,10,2009-03-06
2,M,Savva Frolov,Савва Фролов,34,20,-22.5,22.5,22.5,,,,,,,22.5,44,B,Raw,Yes,,,,,,Amateur Teen 13,8,2010-12-18
DQ,M,Vladimir Voloshin,Владимир Волошин,25,-115,-115,-115,,,,,,,,,52,B,Raw,Yes,,,,,,Amateur Open,31,1988-09-04
1,M,Vladislav Zabolotnyy,Владислав Заболотный,55,35,-40,-40,35,,,,,,,35,56,B,Raw,Yes,,,,,,Amateur Teen 13,13,2006-05-05
2,M,Zakhar Kovalev,Захар Ковалев,54.6,25,30,-35,30,,,,,,,30,56,B,Raw,Yes,,,,,,Amateur Teen 13,10,2008-12-01
1,M,Maksim Andreev,Максим Андреев,55.4,65,70,75,75,,,,,,,75,56,B,Raw,Yes,,,,,,Amateur Teen 14-15,15,2004-01-16
1,M,Artem Liventsov,Артем Ливенцов,63,35,40,-42.5,40,,,,,,,40,67.5,B,Raw,Yes,,,,,,Amateur Teen 13,13,2006-05-11
2,M,Sergey Filimonichev,Сергей Филимоничев,67.5,30,35,-40,35,,,,,,,35,67.5,B,Raw,Yes,,,,,,Amateur Teen 13,10,2009-08-01
1,M,Danila Zherebtsov,Данила Жеребцов,65.1,100,105,110,110,,,,,,,110,67.5,B,Raw,Yes,,,,,,Amateur Teen 16-17,17,2002-05-27
1,M,Danil Vnukov,Данил Внуков,70.7,85,90,-92.5,90,,,,,,,90,75,B,Raw,Yes,,,,,,Amateur Teen 14-15,15,2004-07-11
1,M,Igor Trukhanov,Игорь Труханов,75,90,-100,102.5,102.5,,,,,,,102.5,75,B,Raw,Yes,,,,,,Amateur Juniors 20-23,20,1998-11-29
2,M,Vadim Galyukov,Вадим Галюков,70,-75,75,80,80,,,,,,,80,75,B,Raw,Yes,,,,,,Amateur Juniors 20-23,21,1998-04-10
1,M,Mikhail Karpov,Михаил Карпов,73.6,132.5,137.5,140,140,,,,,,,140,75,B,Raw,Yes,,,,,,Amateur Open,27,1992-04-06
1,M,Anton Dudkin,Антон Дудкин,73.9,100,-105,-105,100,,,,,,,100,75,B,Raw,Yes,,,,,,Amateur Masters 40-44,40,1979-07-19
1,M,Vladimir Ilichenko,Владимир Ильиченко,74,100,105,107.5,107.5,,,,,,,107.5,75,B,Raw,Yes,,,,,,Amateur Masters 60-64,62,1957-02-05
1,M,Aleksandr Yarygin,Александр Ярыгин,75,90,95,-100,95,,,,,,,95,75,B,Raw,Yes,,,,,,Amateur Masters 65-69,68,1951-07-30
1,M,Danila Slaykovskiy,Данила Слайковский,81.1,110,-115,115,115,,,,,,,115,82.5,B,Raw,Yes,,,,,,Amateur Teen 16-17,16,2002-12-14
1,M,Vadim Makeev,Вадим Макеев,81,150,160,-165,160,,,,,,,160,82.5,B,Raw,Yes,,,,,,Amateur Open,25,1993-12-10
2,M,Timur Shamsutdinov,Тимур Шамсутдинов,79.6,-140,145,150,150,,,,,,,150,82.5,B,Raw,Yes,,,,,,Amateur Open,36,1983-05-20
3,M,Vladimir Zhatikov,Владимир Жатиков,80.9,135,140,-145,140,,,,,,,140,82.5,B,Raw,Yes,,,,,,Amateur Open,28,1991-05-18
4,M,Vasiliy Samarkin,Василий Самаркин,82.5,130,140,-147.5,140,,,,,,,140,82.5,B,Raw,Yes,,,,,,Amateur Open,31,1988-06-19
5,M,Vladimir Voloshin,Владимир Волошин,80.1,-115,120,130,130,,,,,,,130,82.5,B,Raw,Yes,,,,,,Amateur Open,31,1988-09-04
6,M,Artem Lyamkin,Артем Лямкин,79,-120,125,-130,125,,,,,,,125,82.5,B,Raw,Yes,,,,,,Amateur Open,27,1991-11-26
7,M,Mikhail Dektyarev,Михаил Дектярев,81.5,122.5,-130,-130,122.5,,,,,,,122.5,82.5,B,Raw,Yes,,,,,,Amateur Open,26,1993-10-19
DQ,M,Sergey Maltsev,Сергей Мальцев,77.8,-117.5,-122.5,-122.5,,,,,,,,,82.5,B,Raw,Yes,,,,,,Amateur Open,28,1991-07-10
1,M,Ilya Pelenev,Илья Пеленев,86.2,100,105,110,110,,,,,,,110,90,B,Raw,Yes,,,,,,Amateur Teen 16-17,17,2002-06-02
1,M,Svyatoslav Osipenko,Святослав Осипенко,87.6,130,135,140,140,,,,,,,140,90,B,Raw,Yes,,,,,,Amateur Juniors 20-23,21,1998-05-05
1,M,Denis Romanovich,Денис Романович,90,190,-200,-200,190,,,,,,,190,90,B,Raw,Yes,,,,,,Amateur Open,31,1988-06-15
2,M,Aleksandr Biryulin,Александр Бирюлин,89.2,145,155,160,160,,,,,,,160,90,B,Raw,Yes,,,,,,Amateur Open,25,1993-11-10
3,M,Sergey Chigridov,Сергей Чигридов,88.9,140,-145,145,145,,,,,,,145,90,B,Raw,Yes,,,,,,Amateur Open,33,1985-11-21
4,M,Nikita Tumanov,Никита Туманов,89.2,140,-155,-155,140,,,,,,,140,90,B,Raw,Yes,,,,,,Amateur Open,35,1984-07-10
5,M,Sergey Sukhonenko,Сергей Сухоненко,89.5,125,-135,-135,125,,,,,,,125,90,B,Raw,Yes,,,,,,Amateur Open,34,1985-09-27
1,M,Aleksey Zaytsev,Алексей Зайцев,90,145,-150,150,150,,,,,,,150,90,B,Raw,Yes,,,,,,Amateur Masters 40-44,41,1978-05-30
1,M,Andrey Bituk,Андрей Битук,86.8,120,135,137.5,137.5,,,,,,,137.5,90,B,Raw,Yes,,,,,,Amateur Masters 45-49,45,1974-02-28
1,M,Viktor Shleyfer,Виктор Шлейфер,86.5,80,85,-87.5,85,,,,,,,85,90,B,Raw,Yes,,,,,,Amateur Masters 70-74,71,1948-07-23
1,M,Petr Grigorev,Петр Григорьев,100,155,162.5,170,170,,,,,,,170,100,B,Raw,Yes,,,,,,Amateur Open,34,1984-11-22
2,M,Aleksandr Belkin,Александр Белкин,96,155,-162.5,162.5,162.5,,,,,,,162.5,100,B,Raw,Yes,,,,,,Amateur Open,38,1981-06-21
3,M,Roman Zavolokin,Роман Заволокин,97.9,142.5,147.5,155,155,,,,,,,155,100,B,Raw,Yes,,,,,,Amateur Open,28,1991-03-23
4,M,Maksim Popov,Максим Попов,95,-120,130,-142.5,130,,,,,,,130,100,B,Raw,Yes,,,,,,Amateur Open,36,1983-08-06
1,M,Evgeniy Shishkin,Евгений Шишкин,98.1,150,160,-170,160,,,,,,,160,100,B,Raw,Yes,,,,,,Amateur Masters 40-44,43,1976-04-17
2,M,Aleksey Vorobev,Алексей Воробьев,97.9,135,-142.5,-142.5,135,,,,,,,135,100,B,Raw,Yes,,,,,,Amateur Masters 40-44,44,1975-04-18
1,M,Rodion Popov,Родион Попов,108,175,187.5,192.5,192.5,,,,,,,192.5,110,B,Raw,Yes,,,,,,Amateur Open,24,1995-06-23
2,M,Lev Chernikov,Лев Черников,105.6,170,177.5,182.5,182.5,,,,,,,182.5,110,B,Raw,Yes,,,,,,Amateur Open,30,1989-09-24
3,M,Nikolay Kozlov,Николай Козлов,108,160,167.5,-175,167.5,,,,,,,167.5,110,B,Raw,Yes,,,,,,Amateur Open,29,1990-05-01
1,M,Roman Kultaev,Роман Култаев,107.9,170,175,-180,175,,,,,,,175,110,B,Raw,Yes,,,,,,Amateur Masters 45-49,47,1972-06-28
1,M,Ivan Volkov,Иван Волков,116,170,180,190,190,,,,,,,190,125,B,Raw,Yes,,,,,,Amateur Open,31,1988-03-12
2,M,Evgeniy Shvetsov,Евгений Швецов,117,175,180,182.5,182.5,,,,,,,182.5,125,B,Raw,Yes,,,,,,Amateur Open,27,1992-02-05
1,M,Egor Pavelev,Егор Павельев,89,200,207.5,-237.5,207.5,,,,,,,207.5,90,B,Single-ply,No,,,,,,Pro Open,28,1991-09-09
2,M,Nikolay Trushin,Николай Трушин,86.2,180,-207.5,-207.5,180,,,,,,,180,90,B,Single-ply,No,,,,,,Pro Open,33,1985-11-12
1,M,Anton Cherdantsev,Антон Черданцев,96,160,-180,-180,160,,,,,,,160,100,B,Single-ply,No,,,,,,Pro Open,36,1982-12-28
1,M,Kseniya Gavrilova,Ксения Гаврилова,67.5,-120,120,127.5,127.5,,120,130,137.5,137.5,,407.5,67.5,SBD,Multi-ply,No,130,137.5,142.5,142.5,,Pro Teen 18-19,19,2000-09-09
1,M,Nikita Styazhkin,Никита Стяжкин,95.5,250,260,270,270,,210,230,247.5,247.5,,767.5,100,SBD,Multi-ply,No,-250,-250,250,250,,Pro Juniors 20-23,20,1999-06-17
1,M,Artem Bachin,Артем Бачин,116.3,-260,260,275,275,,230,-245,-245,230,,780,125,SBD,Multi-ply,No,250,265,275,275,,Pro Open,36,1983-10-19
1,M,Aleksandr Samoylik,Александр Самойлик,145.5,225,240,-250,240,,220,,,220,,700,140+,SBD,Multi-ply,No,215,230,240,240,,Pro Masters 40-44,44,1975-06-20
1,F,Elena Ziganshina,Елена Зиганшина,75,67.5,72.5,75,75,,125,132.5,147.5,147.5,,352.5,75,SBD,Wraps,No,120,130,-140,130,,Pro Open,38,1981-05-14
1,M,Vladimir Rymzin,Владимир Рымзин,47.9,30,35,37.5,37.5,,75,85,-100,85,,182.5,48,SBD,Wraps,No,45,55,60,60,,Pro Teen 13,13,2006-01-23
1,M,Kirill Raevskiy,Кирилл Раевский,38,27.5,32.5,35,35,,70,80,-95,80,,165,52,SBD,Wraps,No,-45,50,-55,50,,Pro Teen 14-15,14,2005-07-22
1,M,Nikolay Emelyanov,Николай Емельянов,66.3,80,85,90,90,,140,145,150,150,,350,67.5,SBD,Wraps,No,100,110,,110,,Pro Masters 55-59,55,1963-12-30
1,M,Ruslan Kasparov,Руслан Каспаров,73,72.5,82.5,87.5,87.5,,150,170,185,185,,382.5,75,SBD,Wraps,No,100,110,-122.5,110,,Pro Teen 16-17,16,2002-12-17
1,M,Yaroslav Chekin,Ярослав Чекин,81,77.5,85,90,90,,160,175,185,185,,405,82.5,SBD,Wraps,No,105,115,130,130,,Pro Teen 16-17,17,2002-08-01
1,M,Dmitriy Cherepanov,Дмитрий Черепанов,88,140,150,160,160,,255,270,,270,,660,90,SBD,Wraps,No,210,220,230,230,,Pro Open,36,1983-07-11
2,M,Evgeniy Kurilov,Евгений Курилов,89.4,145,152.5,157.5,157.5,,215,225,232.5,232.5,,585,90,SBD,Wraps,No,180,190,195,195,,Pro Open,38,1981-05-07
3,M,Kirill Dolgov,Кирилл Долгов,88.6,120,125,132.5,132.5,,170,180,187.5,187.5,,470,90,SBD,Wraps,No,-145,-150,150,150,,Pro Open,32,1987-07-08
1,M,Denis Vostrikov,Денис Востриков,98.1,-145,152.5,155,155,,-220,240,-252.5,240,,605,100,SBD,Wraps,No,210,-220,-220,210,,Pro Juniors 20-23,21,1997-12-13
1,M,Maksim Ivanov,Максим Иванов,96.9,160,167.5,-170,167.5,,260,280,-290,280,,677.5,100,SBD,Wraps,No,230,-245,-250,230,,Pro Open,30,1989-06-16
2,M,Artem Potkin,Артем Поткин,99.7,-145,150,162.5,162.5,,230,250,260,260,,657.5,100,SBD,Wraps,No,210,225,235,235,,Pro Open,25,1994-04-21
1,M,Igor Zelenko,Игорь Зеленко,99,140,150,160,160,,200,220,-235,220,,580,100,SBD,Wraps,No,190,200,-210,200,,Pro Masters 45-49,47,1972-06-03
1,M,Ivan Yuzhakov,Иван Южаков,110,150,160,167.5,167.5,,275,-280,,275,,672.5,110,SBD,Wraps,No,-220,-230,230,230,,Pro Open,24,1995-06-09
2,M,Vyacheslav Batyshev,Вячеслав Батышев,102,175,182.5,-187.5,182.5,,240,255,-262.5,255,,665,110,SBD,Wraps,No,220,227.5,-235,227.5,,Pro Open,30,1989-04-29
1,M,Pavel Pakhomov,Павел Пахомов,122.1,145,152.5,-160,152.5,,245,257.5,-262.5,257.5,,635,125,SBD,Wraps,No,200,210,225,225,,Pro Open,33,1986-04-02
1,F,Violetta Kurnavkina,Виолетта Курнавкина,60,50,-52.5,-52.5,50,,80,82.5,85,85,,220,60,SBD,Wraps,Yes,80,85,-90,85,,Amateur Teen 14-15,14,2004-11-18
1,F,Ekaterina Shumilova,Екатерина Шумилова,60,35,40,-45,40,,90,95,-100,95,,205,60,SBD,Wraps,Yes,60,70,-75,70,,Amateur Teen 16-17,17,2002-09-08
1,F,Valentina Minakova,Валентина Минакова,67.3,55,-60,60,60,,120,135,145,145,,330,67.5,SBD,Wraps,Yes,115,122.5,125,125,,Amateur Open,31,1987-11-01
2,F,Darya Tomilova,Дарья Томилова,62.5,55,60,62.5,62.5,,135,-140,140,140,,312.5,67.5,SBD,Wraps,Yes,100,110,-115,110,,Amateur Open,20,1999-10-07
1,F,Tatyana Simonova,Татьяна Симонова,116,65,70,72.5,72.5,,120,135,-145,135,,362.5,90+,SBD,Wraps,Yes,140,150,155,155,,Amateur Juniors 20-23,20,1999-08-04
1,M,Andrey Tusalimov,Андрей Тусалимов,56,110,115,120,120,,145,160,170,170,,425,56,SBD,Wraps,Yes,130,135,-140,135,,Amateur Open,27,1992-05-10
1,M,Viktor Gauz,Виктор Гауз,63.6,60,70,75,75,,100,120,135,135,,315,67.5,SBD,Wraps,Yes,90,-105,105,105,,Amateur Teen 16-17,17,2002-08-19
1,M,Aleksandr Konshin,Александр Коньшин,69.9,60,65,70,70,,110,120,130,130,,305,75,SBD,Wraps,Yes,90,-100,105,105,,Amateur Teen 16-17,16,2003-04-10
DQ,M,Egor Medvedev,Егор Медведев,75,-125,,,,,-190,,,,,,75,SBD,Wraps,Yes,-180,-180,-180,,,Amateur Open,29,1990-08-23
1,M,Evgeniy Fisher,Евгений Фишер,79.5,70,75,80,80,,137.5,147.5,155,155,,345,82.5,SBD,Wraps,Yes,100,110,-120,110,,Amateur Teen 14-15,15,2004-03-04
1,M,Oleg Kazbeev,Олег Казбеев,82.3,115,120,,120,,170,175,-180,175,,445,82.5,SBD,Wraps,Yes,145,-150,150,150,,Amateur Juniors 20-23,23,1996-06-15
1,M,Petr Kokhas,Петр Кохась,81.4,140,147.5,,147.5,,200,220,225,225,,577.5,82.5,SBD,Wraps,Yes,195,205,-212.5,205,,Amateur Open,29,1990-04-18
2,M,Andrey Sulimov,Андрей Сулимов,77.3,115,120,-122.5,120,,170,180,185,185,,460,82.5,SBD,Wraps,Yes,155,-165,-172.5,155,,Amateur Open,26,1992-12-04
1,M,Andrey Zhuravlev,Андрей Журавлев,89.2,132.5,137.5,-140,137.5,,190,200,-205,200,,532.5,90,SBD,Wraps,Yes,185,195,-205,195,,Amateur Open,26,1993-10-06
1,M,Denis Sysolov,Денис Сысолов,99.5,90,100,-110,100,,160,175,-190,175,,415,100,SBD,Wraps,Yes,-140,-140,140,140,,Amateur Teen 16-17,17,2002-06-10
1,M,Oleg Kartashev,Олег Карташев,108,105,115,120,120,,175,185,200,200,,495,110,SBD,Wraps,Yes,-175,-175,175,175,,Amateur Open,25,1994-04-15
1,M,Evgeniy Golubev,Евгений Голубев,135,150,160,-175,160,,210,230,245,245,,605,140,SBD,Multi-ply,No,200,-220,-230,200,,Pro Open,50,1969-03-29
1,M,Evgeniy Golubev,Евгений Голубев,135,150,160,-175,160,,210,230,245,245,,605,140,SBD,Multi-ply,No,200,-220,-230,200,,Pro Masters 50-54,50,1969-03-29
