Place,Name,Sex,Event,Division,Equipment,BirthYear,Team,State,BodyweightKg,Squat1Kg,Squat2Kg,Squat3Kg,Best3SquatKg,Bench1Kg,Bench2Kg,Bench3Kg,Best3BenchKg,Deadlift1Kg,Deadlift2Kg,Deadlift3Kg,Best3DeadliftKg,TotalKg,Age,BirthDate
1,Joshua Shealy,M,B,MR-O,Raw,1985,,GA,102.05,,,,,-165,170,-182.5,170,,,,,170,,
2,Joshua de Leon,M,B,MR-O,Raw,1993,Team Roswell Barbell,GA,147.5,,,,,182.5,187.5,-192.5,187.5,,,,,187.5,,
1,Tee Meyers,M,D,M-O,Single-ply,1956,,GA,87.35,,,,,,,,,272.5,-292.5,-292.5,272.5,272.5,,
1,Rhonda Sams,F,SBD,F-M1b,Single-ply,1972,,GA,73.7,90,105,115,115,45,52.5,-55,52.5,102.5,127.5,145,145,312.5,,
1,Sierra Brock,F,SBD,FR-Jr,Raw,1998,,GA,117.15,-140,140,152.5,152.5,72.5,80,85,85,117.5,127.5,137.5,137.5,375,,
2,Judy Dinh,F,SBD,FR-Jr,Raw,1997,,GA,62.2,-85,95,-100,95,-40,42.5,45,45,112.5,120,130,130,270,,
3,Autumn Lester,F,SBD,FR-Jr,Raw,1997,,TN,91.7,95,102.5,110,110,50,55,57.5,57.5,87.5,97.5,105,105,272.5,,
1,Kayla Clancey,F,SBD,FR-Jr,Raw,1996,Team Roswell Barbell,GA,72.2,77.5,-85,85,85,47.5,-52.5,-52.5,47.5,102.5,107.5,112.5,112.5,245,,
4,Kayla Clancey,F,SBD,FR-Jr,Raw,1996,Team Roswell Barbell,GA,72.2,77.5,-85,85,85,47.5,-52.5,-52.5,47.5,102.5,107.5,112.5,112.5,245,,
DQ,Jeanine Russell,F,SBD,FR-M,Raw,1976,Team Roswell Barbell,GA,69.45,87.5,-92.5,-92.5,87.5,-55,-55,-55,,95,-100,100,100,,,
1,Christianna Watkins,F,SBD,FR-O,Raw,1989,,GA,77.4,147.5,155,160,160,95,100,102.5,102.5,150,160,165,165,427.5,,
2,Megan Gibbs,F,SBD,FR-O,Raw,2002,,GA,82.3,152.5,162.5,170,170,72.5,80,-87.5,80,165,177.5,-185,177.5,427.5,,
3,Brittany Good,F,SBD,FR-O,Raw,1993,,GA,69.1,125,-130,135,135,70,75,-80,75,137.5,145,150,150,360,,
4,Victoria Johnson,F,SBD,FR-O,Raw,1995,,GA,60.3,97.5,102.5,107.5,107.5,62.5,67.5,72.5,72.5,130,135,137.5,137.5,317.5,,
5,Crystal Emory,F,SBD,FR-O,Raw,1988,,NC,98.9,-122.5,-125,127.5,127.5,72.5,75,-77.5,75,-147.5,155,-160,155,357.5,,
6,Ashely Reno,F,SBD,FR-O,Raw,1992,,GA,67.35,95,102.5,110,110,50,-55,-55,50,120,127.5,137.5,137.5,297.5,,
7,Allyson Terry,F,SBD,FR-O,Raw,1994,,GA,78.7,97.5,-102.5,105,105,55,60,65,65,115,120,140,140,310,,
8,Hannah Croscutt,F,SBD,FR-O,Raw,1992,,GA,73.1,110,-115,-120,110,52.5,60,-65,60,117.5,122.5,130,130,300,,
9,Natasha Acker,F,SBD,FR-O,Raw,1986,,GA,89.25,82.5,90,95,95,47.5,52.5,-55,52.5,95,102.5,112.5,112.5,260,,
10,Mikaela Tejeda,F,SBD,FR-O,Raw,1990,,GA,75.35,75,77.5,87.5,87.5,45,50,-52.5,50,92.5,100,105,105,242.5,,
11,Catarina Park,F,SBD,FR-O,Raw,1995,,GA,61,75,-80,80,80,37.5,40,45,45,75,82.5,95,95,220,,
1,Megan Gibbs,F,SBD,FR-T,Raw,2002,,GA,82.3,152.5,162.5,170,170,72.5,80,-87.5,80,165,177.5,-185,177.5,427.5,,
2,Alisiya Hassam,F,SBD,FR-T,Raw,2003,Team Roswell Barbell,GA,76.3,102.5,107.5,-115,107.5,57.5,60,-62.5,60,115,127.5,137.5,137.5,305,,
1,Hunter Reaux,M,SBD,MR-Jr,Raw,1998,,SC,88.2,245,260,272.5,272.5,145,150,155,155,285,300,-317.5,300,727.5,,
2,Connor Sult,M,SBD,MR-Jr,Raw,1998,,SC,90.35,237.5,242.5,250,250,145,150,-155,150,265,275,285,285,685,,
3,Jhante Charles,M,SBD,MR-Jr,Raw,1998,,GA,91.5,205,215,222.5,222.5,152.5,-157.5,-160,152.5,250,-277.5,-277.5,250,625,,
4,Amauri Negroni,M,SBD,MR-Jr,Raw,1997,,SC,65.3,-165,165,177.5,177.5,105,110,115,115,197.5,-205,-207.5,197.5,490,,
5,Pedro Cruz,M,SBD,MR-Jr,Raw,1997,,GA,88.05,-195,205,210,210,127.5,132.5,137.5,137.5,205,222.5,245,245,592.5,,
6,Dennis Vega,M,SBD,MR-Jr,Raw,1999,,GA,80.7,160,-167.5,167.5,167.5,97.5,107.5,112.5,112.5,165,182.5,192.5,192.5,472.5,,
7,Dylan Camp,M,SBD,MR-Jr,Raw,1998,,GA,79.5,147.5,155,162.5,162.5,102.5,107.5,112.5,112.5,165,170,-182.5,170,445,,
8,Aleksandar Panayotov,M,SBD,MR-Jr,Raw,1999,,GA,77.25,-120,132.5,-147.5,132.5,100,105,-112.5,105,160,172.5,-185,172.5,410,,
1,Mark Valdez,M,SBD,MR-M,Raw,1970,,GA,88.2,-165,170,182.5,182.5,100,105,-110,105,-205,215,230,230,517.5,,
1,Joshua Smith,M,SBD,MR-O,Raw,1993,,GA,88.05,235,250,265,265,157.5,167.5,-172.5,167.5,267.5,282.5,-295,282.5,715,,
2,Lorenzo McDonald,M,SBD,MR-O,Raw,1987,,GA,90.35,217.5,230,242.5,242.5,162.5,177.5,180,180,262.5,270,275,275,697.5,,
3,Logan Barrett,M,SBD,MR-O,Raw,1985,Team Roswell Barbell,GA,136.3,295,305,-320,305,157.5,-170,-170,157.5,-280,290,300,300,762.5,,
4,Gregory Luu,M,SBD,MR-O,Raw,1992,,GA,71.95,172.5,182.5,192.5,192.5,117.5,125,130,130,185,195,207.5,207.5,530,,
5,Ben Chu,M,SBD,MR-O,Raw,1984,,GA,78.65,177.5,192.5,-197.5,192.5,117.5,127.5,-130,127.5,210,225,230,230,550,,
6,Foster White,M,SBD,MR-O,Raw,1992,Team Roswell Barbell,GA,116.5,230,242.5,250,250,145,157.5,162.5,162.5,240,250,-257.5,250,662.5,,
7,Brett Johns #1,M,SBD,MR-O,Raw,1994,,GA,89.5,170,-182.5,182.5,182.5,132.5,140,-142.5,140,232.5,-245,245,245,567.5,,
8,Cole Keeter,M,SBD,MR-O,Raw,1994,Team Roswell Barbell,GA,73.45,157.5,165,-172.5,165,102.5,107.5,112.5,112.5,157.5,-167.5,172.5,172.5,450,,
9,Jordan Barnard,M,SBD,MR-O,Raw,1992,Team Roswell Barbell,GA,74.2,160,-167.5,-167.5,160,95,100,-105,100,175,182.5,187.5,187.5,447.5,,
10,Lee Howard,M,SBD,MR-O,Raw,1994,,GA,81.9,140,150,157.5,157.5,100,107.5,-117.5,107.5,185,195,205,205,470,,
DQ,Cordell Estrada,M,SBD,MR-O,Raw,1986,Team Rohr,GA,110.45,195,205,-217.5,205,150,162.5,-170,162.5,235,262.5,-275,262.5,,,
1,Harris Simpson,M,SBD,MR-T,Raw,2000,,GA,103.5,182.5,192.5,-195,192.5,-125,132.5,140,140,245,-260,-260,245,577.5,,
2,Bryan Rangel,M,SBD,MR-T,Raw,2001,,GA,91.35,147.5,165,190,190,107.5,127.5,-145,127.5,167.5,192.5,-230,192.5,510,,
3,Arthur Hernandez,M,SBD,MR-T,Raw,2002,,GA,79.8,142.5,-160,-160,142.5,100,107.5,112.5,112.5,160,167.5,187.5,187.5,442.5,,
1,Devon Arrington,M,SBD,MR-T2,Raw,2003,,GA,54.22,55,60,65,65,32.5,37.5,-45,37.5,65,70,-75,70,172.5,,
1,Hayston Scott,M,SBD,MR-Y,Raw,2008,,AL,41.82,60,65,72.5,72.5,32.5,-40,-40,32.5,77.5,82.5,90,90,195,,
1,River Ryland,M,BD,MR-T3,Raw,2001,,GA,98.8,,,,,120,130,-137.5,130,197.5,-212.5,220,220,350,,
