Place,WeightClassKg,Name,Event,Equipment,Sex,Division,BirthYear,Team,BodyweightKg,Squat1Kg,Squat2Kg,Squat3Kg,Best3SquatKg,Bench1Kg,Bench2Kg,Bench3Kg,Best3BenchKg,Deadlift1Kg,Deadlift2Kg,Deadlift3Kg,Best3DeadliftKg,TotalKg
1,83,Urban Gerželj,B,Raw,M,O,1991,OSK,81.52,,,,,130,135,-137.5,135,,,,,135
1,93,Nejc Krč,B,Raw,M,O,1996,KAR,88.5,,,,,122.5,130,135,135,,,,,135
1,105,Branko Suzić,B,Raw,M,O,1964,OSK,102.9,,,,,175,180,-185,180,,,,,180
2,105,Ahmed Somali Navid,B,Raw,M,O,1985,THOR,102.45,,,,,-152.5,155,160,160,,,,,160
3,105,Drago Badovinac,B,Raw,M,O,1959,NMZ,98.96,,,,,120,125,130,130,,,,,130
1,120,Niko Del-Bianchi,B,Raw,M,O,1997,THOR,118.2,,,,,215,230,241,241,,,,,241
1,52,Beatrice Baraldi,SBD,Raw,F,O,1991,ITA,49.44,85,87.5,92.5,92.5,67.5,70,-72.5,70,92.5,100,105,105,267.5
2,52,Nicole Fadini,SBD,Raw,F,O,1998,ITA,50.6,85,92.5,-95,92.5,50,55,-57.5,55,90,97.5,105,105,252.5
1,57,Ines Polc,SBD,Raw,F,O,2001,THOR,56.6,97.5,105,107.5,107.5,50,52.5,-55,52.5,95,-100,-100,95,255
2,57,Anastasia Corrias,SBD,Raw,F,O,1995,ITA,53.58,80,85,90,90,47.5,52.5,-55,52.5,105,110,-112.5,110,252.5
3,57,Chiara De Monte,SBD,Raw,F,O,2000,ITA,55.7,80,87.5,-92.5,87.5,40,42.5,-45,42.5,80,87.5,90,90,220
1,63,Maja Apat,SBD,Raw,F,O,1998,THOR,62.2,72.5,77.5,80,80,47.5,50,52.5,52.5,-102.5,102.5,107.5,107.5,240
2,63,Iva Klofutar,SBD,Raw,F,O,1999,NMZ,62.4,90,-95,-95,90,42.5,-47.5,-47.5,42.5,90,95,100,100,232.5
3,63,Martina Drago,SBD,Raw,F,O,1996,ITA,62.34,80,87.5,-95,87.5,25,32.5,-37.5,32.5,95,102.5,107.5,107.5,227.5
1,72,Rebeka Pečjak,SBD,Raw,F,O,1996,OLI,70.22,132.5,-140,-140,132.5,65,67.5,70,70,157.5,167.5,-175,167.5,370
2,72,Nuša Balen,SBD,Raw,F,O,1999,OLI,70.76,90,95,100,100,50,55,-60,55,125,132.5,140,140,295
1,84,Nuša Železnik,SBD,Raw,F,O,2000,POL,76.4,157.5,167.5,172.5,172.5,80,85,90,90,167.5,180,192.5,192.5,455
2,84,Elisa Zoratto,SBD,Raw,F,O,1982,ITA,82.22,110,120,122.5,122.5,62.5,-67.5,67.5,67.5,130,137.5,140,140,330
3,84,Valentina Mikolic,SBD,Raw,F,O,1999,NMZ,77.34,95,100,107.5,107.5,37.5,42.5,-47.5,42.5,95,105,112.5,112.5,262.5
1,84+,Dušanka Plemeniti,SBD,Raw,F,O,1956,OLI,94.5,85,90,-95,90,55,57.5,60,60,112.5,117.5,122.5,122.5,272.5
2,84+,Meta Vrazic,SBD,Raw,F,O,1997,OLI,87,80,85,90.5,90.5,47.5,50,52.5,52.5,97.5,107.5,115,115,258
1,66,Gregor Ilec,SBD,Raw,M,O,1998,THOR,64.56,155,165,-170,165,-95,95,102.5,102.5,155,165,170,170,437.5
1,74,Francesco Bosari,SBD,Raw,M,O,1997,ITA,71.2,185,192.5,197.5,197.5,135,142.5,147.5,147.5,180,190,200,200,545
2,74,Gašper Meden,SBD,Raw,M,O,1988,NMZ,73.28,160,170,175,175,127.5,135,137.5,137.5,195,205,210,210,522.5
3,74,Matej Fortuna,SBD,Raw,M,O,1998,NMZ,73.6,160,172.5,182.5,182.5,85,90,95,95,180,195,-205,195,472.5
4,74,Sebastjan Emeršič,SBD,Raw,M,O,1997,DGL,72.14,-140,140,-150,140,-115,115,117.5,117.5,190,195,-200,195,452.5
5,74,Christopher Burelli,SBD,Raw,M,O,1991,ITA,71.28,125,132.5,140,140,95,100,-102.5,100,150,162.5,170,170,410
6,74,Luka Kitak,SBD,Raw,M,O,2001,THOR,72.54,135,137.5,152.5,152.5,75,80,85,85,150,157.5,165,165,402.5
1,83,Žan Kozar,SBD,Raw,M,O,1991,POL,80.56,175,185,190,190,110,120,-122.5,120,205,220,222.5,222.5,532.5
2,83,Blaž Varžič,SBD,Raw,M,O,1993,THOR,81.78,167.5,177.5,182.5,182.5,115,120,125,125,210,-225,-232.5,210,517.5
3,83,Elvis Sepetavc,SBD,Raw,M,O,1996,NMZ,80.36,165,172.5,-180,172.5,107.5,110,112.5,112.5,200,207.5,-215,207.5,492.5
4,83,Riccardo Penazzi,SBD,Raw,M,O,1995,ITA,80.6,152.5,162.5,-170,162.5,127.5,132.5,135,135,180,190,-202.5,190,487.5
5,83,Jaka Mastnak,SBD,Raw,M,O,2002,THOR,80.88,140,150,157.5,157.5,115,120,125,125,157.5,170,180,180,462.5
6,83,Massimo De Giudici,SBD,Raw,M,O,1985,ITA,80.26,-152.5,160,-165,160,105,110,-112.5,110,157.5,165,170,170,440
7,83,Erik Kladosek,SBD,Raw,M,O,2001,DGL,81.6,150,157.5,165,165,85,-92.5,-92.5,85,155,165,172.5,172.5,422.5
8,83,Matevz Andolsek Peklaj,SBD,Raw,M,O,1999,OLI,74.5,145,-150,-150,145,100,-105,-107.5,100,150,160,170,170,415
1,93,Uros Pihler,SBD,Raw,M,O,1996,DGL,90.18,200,212.5,220,220,120,127.5,132.5,132.5,-257.5,257.5,275,275,627.5
2,93,Rok Kar,SBD,Raw,M,O,1993,THOR,91.84,207.5,-220,220,220,130,135,137.5,137.5,257.5,270,-277.5,270,627.5
3,93,Nejc Rebolj,SBD,Raw,M,O,1999,OLI,91.84,210,220,-230,220,115,122.5,127.5,127.5,230,240,242.5,242.5,590
4,93,Lan Gajser,SBD,Raw,M,O,2001,THOR,91.8,192.5,202.5,210,210,127.5,132.5,137.5,137.5,-225,-232.5,240,240,587.5
5,93,Miha Šoba,SBD,Raw,M,O,1999,THOR,91.24,195,207.5,-217.5,207.5,122.5,130,-132.5,130,220,230,237.5,237.5,575
6,93,Daniel Djurić,SBD,Raw,M,O,1997,KAR,85.26,170,180,190,190,110,125,130,130,180,195,205,205,525
7,93,Mark Stular,SBD,Raw,M,O,1999,KAR,90.12,152.5,165,175,175,105,112.5,117.5,117.5,202.5,215,230,230,522.5
8,93,Nejc Galof,SBD,Raw,M,O,1994,POL,92.34,160,172.5,180,180,100,105,-110,105,190,205,220,220,505
9,93,Rok Leskovar,SBD,Raw,M,O,1999,THOR,92,160,-170,175,175,92.5,97.5,102.5,102.5,180,-192.5,200,200,477.5
1,105,Azur Kurbašić,SBD,Raw,M,O,1999,OSK,100.84,-212.5,220,-232.5,220,120,125,130,130,252.5,265,275,275,625
2,105,Samo Železnik,SBD,Raw,M,O,1994,POL,104.34,185,200,210,210,120,127.5,132.5,132.5,210,-225,252.5,252.5,595
3,105,Kristian Štefe,SBD,Raw,M,O,1999,KAR,102.14,207.5,217.5,225,225,120,127.5,132.5,132.5,220,230,235,235,592.5
4,105,David Ostanek,SBD,Raw,M,O,2001,OSK,94.6,150,152.5,165,165,115,-120,120,120,200,215,-225,215,500
1,120,Edvin Hadžić,SBD,Raw,M,O,1998,POL,118.24,230,-242.5,242.5,242.5,132.5,140,145,145,220,-230,230,230,617.5
2,120,Rene Vucko,SBD,Raw,M,O,1996,THOR,115.82,180,-190,200,200,120,125,-130,125,210,-225,-225,210,535
