Place,Sex,WeightClassKg,Event,Equipment,Tested,Division,Name,CyrillicName,BirthDate,BodyweightKg,Squat1Kg,Squat2Kg,Squat3Kg,Best3SquatKg,Bench1Kg,Bench2Kg,Bench3Kg,Best3BenchKg,Bench4Kg,Deadlift1Kg,Deadlift2Kg,Deadlift3Kg,Deadlift4Kg,Best3DeadliftKg,TotalKg,Country
1,F,67.5,SBD,Wraps,No,Open,Svitlana Glatman,Світлана Глатман,1981-09-05,62.1,130,-137.5,137.5,137.5,62.5,67.5,-70,67.5,,130,137.5,-145,,137.5,342.5,Ukraine
1,M,75,SBD,Wraps,No,Teen 16-17,Vano Mertsi,,2000-09-03,70.95,-120,120,150,150,60,70,-80,70,,140,165,180,,180,400,Georgia
1,M,75,SBD,Wraps,No,Open,Mikola Belozorov,Микола Белозьоров,1982-12-16,73.75,-200,-200,200,200,120,125,-127.5,125,,235,-245,-245,,235,560,Ukraine
1,M,82.5,SBD,Wraps,No,Open,Evgen Konovalov,Євген Коновалов,1987-09-08,81,190,200,210,210,140,-145,-145,140,,220,235,-240,,235,585,Ukraine
2,M,82.5,SBD,Wraps,No,Open,Pavlo Kubrak,Павло Кубрак,1976-07-14,81.7,-180,180,-190,180,107.5,-115,-117.5,107.5,,190,205,225,,225,512.5,Ukraine
1,M,82.5,SBD,Wraps,No,Masters 40-44,Pavlo Kubrak,Павло Кубрак,1976-07-14,81.7,-180,180,-190,180,107.5,-115,-117.5,107.5,,190,205,225,,225,512.5,Ukraine
1,M,90,SBD,Wraps,No,Teen 18-19,Pavlo Prudskiy,Павло Прудський,1998-07-10,88.45,200,215,-225,215,135,145,-152.5,145,,220,-240,-240,,220,580,Ukraine
1,M,90,SBD,Wraps,No,Open,Mikola Tishuk,Микола Тишук,1992-03-12,88.3,250,-270,-270,250,140,150,160,160,,255,-265,,,255,665,Ukraine
2,M,90,SBD,Wraps,No,Open,Vadim Yaroslavskiy,Вадим Ярославський,1984-06-05,90,220,235,250,250,130,145,160,160,,-200,200,230,,230,640,Ukraine
1,M,100,SBD,Wraps,No,Juniors 20-23,Sergiy Plotnikov,Сергій Плотніков,1995-01-08,99.5,250,265,277.5,277.5,165,175,180,180,,245,262.5,267.5,,267.5,725,Ukraine
2,M,100,SBD,Wraps,No,Juniors 20-23,Nicalai Colta,,1995-11-27,98.8,-215,215,-225,215,170,175,-177.5,175,,245,250,255,,255,645,Moldova
1,M,100,SBD,Wraps,No,Open,Mikhaylo Zhelyazkov,Михайло Желязков,1980-09-12,98.4,315,325,335,335,180,185,,185,,320,330,-340,,330,850,Ukraine
2,M,100,SBD,Wraps,No,Open,Sergiy Plotnikov,Сергій Плотніков,1995-01-08,99.5,250,265,277.5,277.5,165,175,180,180,,245,262.5,267.5,,267.5,725,Ukraine
3,M,100,SBD,Wraps,No,Open,Viktor Rublyov,Віктор Рубльов,1975-10-26,98.65,-265,270,280,280,-175,175,-182.5,175,,255,-265,265,,265,720,Ukraine
1,M,100,SBD,Wraps,No,Masters 40-44,Viktor Rublyov,Віктор Рубльов,1975-10-26,98.65,-265,270,280,280,-175,175,-182.5,175,,255,-265,265,,265,720,Ukraine
1,M,110,SBD,Wraps,No,Open,Mikita Eyrushevich,Микита Ейрушевич,1989-06-30,109.3,290,-310,310,310,185,-190,,185,,-270,285,-307.5,,285,780,Ukraine
2,M,110,SBD,Wraps,No,Open,Evgeniy Rudnik,Євгеній Руднік,1978-03-01,106.95,240,-280,280,280,180,-200,,180,,280,-310,,,280,740,Ukraine
DQ,M,110,SBD,Wraps,No,Open,Igor Emelianov,,1993-08-15,107.5,-220,,,,,,,,,,,,,,,Moldova
1,M,110,SBD,Wraps,No,Masters 40-44,Mamuka Gegidze,,1974-03-23,108,160,180,200,200,140,-150,-150,140,,200,230,240,,240,580,Georgia
DQ,M,110,SBD,Wraps,No,Masters 40-44,Igor Emelianov,,1975-11-25,107.5,-220,,,,,,,,,,,,,,,Moldova
1,M,125,SBD,Wraps,No,Open,Denis Alekseenko,Денис Алексеєнко,1993-08-15,123,170,182.5,-190,182.5,130,-140,-140,130,,180,200,-220,,200,512.5,Ukraine
1,M,67.5,BD,Raw,No,Teen 18-19,Besiki Kochiashvil,,1999-07-15,62.45,,,,,70,85,92.5,92.5,,110,120,135,,135,227.5,Georgia
1,M,82.5,BD,Raw,No,Teen 16-17,Giorgi Lortkipanidze,,2001-03-11,78.35,,,,,-85,85,100,100,,140,160,175,,175,275,Georgia
1,M,82.5,BD,Raw,No,Open,Eugene Lukyanov,,1980-08-11,82.2,,,,,165,170,-175,170,,210,220,230,,230,400,Belarus
1,M,100,BD,Raw,No,Teen 16-17,Nika Diasamidze,,2001-11-04,95.9,,,,,85,100,-110,100,,160,180,200,,200,300,Georgia
1,M,110,BD,Raw,No,Masters 45-49,Datuna Mzhavanadze,,1972-05-14,104.35,,,,,170,185,195,195,-202.5,230,250,-265,,250,445,Georgia
1,M,110,BD,Raw,No,Masters 50-54,Vladimir Lukyanov,,1966-02-18,101.45,,,,,120,130,,130,,250,260,270,,270,400,Belarus
1,M,125,BD,Raw,No,Open,Oleksandr Tarasov,Олександр Тарасов,1991-10-27,116.35,,,,,-210,210,-222.5,210,,280,-300,-300,,280,490,Ukraine
2,M,125,BD,Raw,No,Open,Shalva Bebiashvili,,1987-01-05,117.95,,,,,-160,160,170,170,,-240,240,250,,250,420,Georgia
1,M,100,BD,Multi-ply,No,Open,Yuriy Kostenko,Юрій Костенко,1971-07-28,99,,,,,185,195,200,200,,-237.5,242.5,275,,275,475,Ukraine
1,M,100,BD,Multi-ply,No,Masters 45-49,Yuriy Kostenko,Юрій Костенко,1971-07-28,99,,,,,185,195,200,200,,-237.5,242.5,275,,275,475,Ukraine
1,M,110,BD,Multi-ply,No,Open,Andriy Romanchuk,Андрій Романчук,1976-12-27,104,,,,,160,167.5,175,175,,260,-280,280,,280,455,Ukraine
1,M,110,BD,Multi-ply,No,Masters 40-44,Andriy Romanchuk,Андрій Романчук,1976-12-27,104,,,,,160,167.5,175,175,,260,-280,280,,280,455,Ukraine
1,F,60,B,Raw,No,Open,Eteri Kumsishvili,,1984-02-17,57.85,,,,,60,70,-80,70,,,,,,,70,Georgia
1,M,82.5,B,Raw,No,Open,Giorgi Kavtaradze,,1994-11-02,82.3,,,,,220,-230,230,230,-240.5,,,,,,230,Georgia
2,M,82.5,B,Raw,No,Open,Vadim Marinich,Вадим Маринич,1981-08-31,81.8,,,,,180,185,-192.5,185,,,,,,,185,Ukraine
3,M,82.5,B,Raw,No,Open,Eugene Lukyanov,,1980-08-11,82.2,,,,,165,170,-175,170,,,,,,,170,Belarus
1,M,90,B,Raw,No,Open,Alexander Shcherbakov,,1966-07-28,88.95,,,,,202.5,210,-220,210,,,,,,,210,Moldova
2,M,90,B,Raw,No,Open,Serhiy Khamytsevych,,1987-01-01,88.7,,,,,200,207.5,-210,207.5,,,,,,,207.5,Belarus
3,M,90,B,Raw,No,Open,Oleksiy Bronishevskiy,Олексій Бронішевський,1988-03-26,86.6,,,,,190,-200,200,200,,,,,,,200,Ukraine
4,M,90,B,Raw,No,Open,Gocha Batsiashvili,,1981-02-23,88.5,,,,,170,180,-185,180,,,,,,,180,Georgia
DQ,M,90,B,Raw,No,Open,Vitaliy Gonetskiy,Віталій Гонецький,1978-08-07,88.95,,,,,-175,-175,-175,,,,,,,,,Ukraine
1,M,100,B,Raw,No,Juniors 20-23,Sergiy Plotnikov,Сергій Плотніков,1995-01-08,99.5,,,,,165,175,180,180,,,,,,,180,Ukraine
2,M,100,B,Raw,No,Juniors 20-23,Nicalai Colta,,1995-11-27,98.8,,,,,170,175,-177.5,175,,,,,,,175,Moldova
1,M,100,B,Raw,No,Open,Denis Bunchuk,Денис Бунчук,1989-07-09,95.95,,,,,235,247.5,-250,247.5,,,,,,,247.5,Ukraine
2,M,100,B,Raw,No,Open,Ruslan Sidorenko,Руслан Сидоренко,1987-07-06,98.05,,,,,-200,205,210,210,,,,,,,210,Ukraine
3,M,100,B,Raw,No,Open,Igor Danilov,Игорь Данилов,1985-11-27,95.35,,,,,-200,-205,205,205,,,,,,,205,Ukraine
4,M,100,B,Raw,No,Open,Andrey Zemlyakov,,1991-06-24,98.05,,,,,175,180,185,185,,,,,,,185,Belarus
1,M,100,B,Raw,No,Masters 45-49,Yuriy Kostenko,Юрій Костенко,1971-07-28,99,,,,,175,182.5,-185,182.5,,,,,,,182.5,Ukraine
2,M,100,B,Raw,No,Masters 40-44,Viktor Rublyov,Віктор Рубльов,1975-10-26,98.65,,,,,-175,175,-182.5,175,,,,,,,175,Ukraine
1,M,110,B,Raw,No,Open,Andriy Romanko,Андрій Романко,1975-08-24,100.35,,,,,200,220,225,225,,,,,,,225,Ukraine
2,M,110,B,Raw,No,Open,Dmitro Berest,Дмитро Берест,1985-07-02,106.5,,,,,-195,215,222.5,222.5,,,,,,,222.5,Ukraine
3,M,110,B,Raw,No,Open,Sergiy Shepel,Сергій Шепель,1983-03-28,104,,,,,170,185,-195,185,,,,,,,185,Ukraine
1,M,110,B,Raw,No,Masters 40-44,Andriy Romanko,Андрій Романко,1975-08-24,100.35,,,,,200,220,225,225,,,,,,,225,Ukraine
2,M,110,B,Raw,No,Masters 40-44,Valery Bianko,,1974-04-15,109.35,,,,,160,-165,,160,,,,,,,160,Belarus
1,M,110,B,Raw,No,Masters 50-54,Oleksandr Kostirya,Олександр Костиря,1963-11-01,105.75,,,,,170,175,-180,175,,,,,,,175,Ukraine
2,M,110,B,Raw,No,Masters 50-54,Vladimir Lukyanov,,1966-02-18,101.45,,,,,120,130,,130,,,,,,,130,Belarus
1,M,125,B,Raw,No,Open,Volodimir Rindya,Володимир Риндя,1975-08-03,120.5,,,,,217.5,222.5,-227.5,222.5,,,,,,,222.5,Ukraine
2,M,125,B,Raw,No,Open,Oleksandr Tarasov,Олександр Тарасов,1991-10-27,116.35,,,,,-210,210,-222.5,210,,,,,,,210,Ukraine
1,M,125,B,Raw,No,Masters 40-44,Volodimir Rindya,Володимир Риндя,1975-08-03,120.5,,,,,217.5,222.5,-227.5,222.5,,,,,,,222.5,Ukraine
2,M,125,B,Raw,No,Masters 40-44,Andriy Shlyama,Андрій Шляма,1976-04-20,118,,,,,200,210,-215,210,,,,,,,210,Ukraine
DQ,M,125,B,Raw,No,Masters 40-44,Oleksandr Poltarukha,Олександр Полтаруха,1973-06-23,113,,,,,-170,-170,-170,,,,,,,,,Ukraine
1,M,140,B,Raw,No,Open,Mikhaylo Shchegolev,Михайло Щеголев,1986-05-31,126.2,,,,,180,190,,190,,,,,,,190,Ukraine
1,M,90,B,Multi-ply,No,Open,Gocha Batsiashvili,,1981-02-23,88.5,,,,,170,180,-185,180,,,,,,,180,Georgia
DQ,M,100,B,Multi-ply,No,Masters 40-44,Vitaliy Popov,,1977-10-30,97.35,,,,,-260,-260,-260,,,,,,,,,Belarus
1,F,56,D,Raw,No,Teen 16-17,Anna Teslya,Анна Тесля,2000-06-19,54.75,,,,,,,,,,-110,120,130,,130,130,Ukraine
1,M,60,D,Raw,No,Teen 16-17,Bogdan Mironenko,Богдан Мироненко,2001-07-31,60,,,,,,,,,,140,150,160,,160,160,Ukraine
1,M,75,D,Raw,No,Teen 18-19,Anatoliy Starostenko,Анатолій Старостенко,1999-04-14,71.15,,,,,,,,,,217.5,225,237.5,,237.5,237.5,Ukraine
1,M,75,D,Raw,No,Open,Mikola Belozorov,Микола Белозьоров,1982-12-16,73.75,,,,,,,,,,235,-245,-245,,235,235,Ukraine
1,M,82.5,D,Raw,No,Juniors 20-23,Andriy Martinevich,Андрій Мартиневич,1993-11-27,80.5,,,,,,,,,,220,240,250,,250,250,Ukraine
1,M,82.5,D,Raw,No,Open,Evgen Konovalov,Євген Коновалов,1987-09-08,81,,,,,,,,,,220,235,-240,,235,235,Ukraine
1,M,90,D,Raw,No,Teen 18-19,Pavlo Prudskiy,Павло Прудський,1998-07-10,88.45,,,,,,,,,,220,-240,-240,,220,220,Ukraine
1,M,100,D,Raw,No,Juniors 20-23,Sergiy Plotnikov,Сергій Плотніков,1995-01-08,99.5,,,,,,,,,,245,262.5,267.5,,267.5,267.5,Ukraine
2,M,100,D,Raw,No,Juniors 20-23,Nicalai Colta,,1995-11-27,98.8,,,,,,,,,,240,250,255,,255,255,Moldova
1,M,100,D,Raw,No,Open,Mikhaylo Zhelyazkov,Михайло Желязков,1980-09-12,98.4,,,,,,,,,,320,330,-340,,330,330,Ukraine
2,M,100,D,Raw,No,Open,Oleg Yanovich,Олег Янович,1992-05-05,94.15,,,,,,,,,,270,-285,292.5,,292.5,292.5,Ukraine
DQ,M,100,D,Raw,No,Open,Evgeniy Yakovlev,Евгений Яковлев,1975-11-12,96.8,,,,,,,,,,-300,-300,-300,,,,Ukraine
1,M,100,D,Raw,No,Masters 40-44,Viktor Rublyov,Віктор Рубльов,1975-10-26,98.65,,,,,,,,,,255,-265,265,,265,265,Ukraine
1,M,110,D,Raw,No,Open,Zhorzh Seydu Togola,Жорж Сейду Тогола,1989-04-05,105.2,,,,,,,,,,320,327.5,-332.5,,327.5,327.5,Ukraine
2,M,110,D,Raw,No,Open,Evgeniy Rudnik,Євгеній Руднік,1978-03-01,106.95,,,,,,,,,,280,-310,,,280,280,Ukraine
1,M,110,D,Raw,No,Masters 50-54,Vladimir Lukyanov,,1966-02-18,101.45,,,,,,,,,,250,260,270,,270,270,Belarus
1,M,125,D,Raw,No,Open,Oleksandr Tarasov,Олександр Тарасов,1991-10-27,116.35,,,,,,,,,,280,-300,-300,,280,280,Ukraine
1,M,110,D,Multi-ply,No,Open,Oleksandr Bayda,Олександр Байда,1982-04-17,105.9,,,,,,,,,,290,295,300,,300,300,Ukraine
1,F,44,D,Raw,Yes,Youth,Tetyana Korostel,Тетяна Коростель,2007-01-07,23.95,,,,,,,,,,45,55,60,,60,60,Ukraine
DQ,F,44,D,Raw,Yes,Open,Oksana Usatyuk,Оксана Усатюк,1993-03-12,43.2,,,,,,,,,,-95,-95,-95,,,,Ukraine
1,F,52,D,Raw,Yes,Open,Mariya Koshil,Марія Кошиль,1978-03-21,51.15,,,,,,,,,,117.5,125,-135,,125,125,Ukraine
2,F,52,D,Raw,Yes,Open,Lyudmila Mutovkina,Людмила Мутовкіна,1981-02-07,52,,,,,,,,,,-90,-95,95,,95,95,Ukraine
1,F,56,D,Raw,Yes,Open,Oleksandra Astakhova,Олександра Астахова,1990-12-16,54.25,,,,,,,,,,135,140.5,-146,,140.5,140.5,Ukraine
2,F,56,D,Raw,Yes,Open,Olesya Kiyan,Олеся Киян,1990-04-10,55.2,,,,,,,,,,117.5,125,127.5,,127.5,127.5,Ukraine
3,F,56,D,Raw,Yes,Open,Tetyana Stronska,Тетяна Стронська,1984-09-19,55.8,,,,,,,,,,110,117.5,125,,125,125,Ukraine
1,F,56,D,Raw,Yes,Masters 45-49,Svitlana Kravchenko,Світлана Кравченко,1971-05-11,53.45,,,,,,,,,,90,95,-97.5,,95,95,Ukraine
1,F,60,D,Raw,Yes,Open,Nataliya Sokurenko,Наталія Сокуренко,1981-01-12,57.85,,,,,,,,,,135,145,-150,,145,145,Ukraine
1,F,67.5,D,Raw,Yes,Open,Katerina Filipova,Катерина Філіпова,1984-06-25,66.5,,,,,,,,,,115,122.5,127.5,,127.5,127.5,Ukraine
1,F,75,D,Raw,Yes,Juniors 20-23,Polina Yakimets,Поліна Якимець,1994-12-16,68.8,,,,,,,,,,120,130,140,,140,140,Ukraine
1,F,75,D,Raw,Yes,Open,Maria Kalistratova,,1991-05-29,71.2,,,,,,,,,,140,147.5,-152.5,,147.5,147.5,Belarus
2,F,75,D,Raw,Yes,Open,Polina Yakimets,Поліна Якимець,1994-12-16,68.8,,,,,,,,,,120,130,140,-147.5,140,140,Ukraine
1,M,67.5,D,Raw,Yes,Teen 18-19,Ruslan Ivanchik,Руслан Іванчик,1999-08-09,66.65,,,,,,,,,,160,170,-185,,170,170,Ukraine
1,M,67.5,D,Raw,Yes,Juniors 20-23,Andriy Kurachov,Андрій Курачов,1996-03-18,67.25,,,,,,,,,,180,190,200,,200,200,Ukraine
2,M,67.5,D,Raw,Yes,Juniors 20-23,Oleksandr Onishchenko,Олександр Оніщенко,1996-03-05,65.2,,,,,,,,,,145,160,170,,170,170,Ukraine
1,M,67.5,D,Raw,Yes,Open,Sergiy Kalchuk,Сергій Кальчук,1989-06-29,67.05,,,,,,,,,,160,170,180,,180,180,Ukraine
2,M,67.5,D,Raw,Yes,Open,Sergiy Rogoviy,Сергій Роговий,1987-05-07,65.95,,,,,,,,,,130,-140,-140,,130,130,Ukraine
1,M,75,D,Raw,Yes,Teen 16-17,Stanislav Tsivina,Станіслав Цівина,2000-01-17,69.05,,,,,,,,,,150,160,-170,,160,160,Ukraine
1,M,75,D,Raw,Yes,Teen 18-19,Mikhaylo Yurchenko,Михайло Юрченко,1999-01-02,68.3,,,,,,,,,,232.5,-240,-240,,232.5,232.5,Ukraine
2,M,75,D,Raw,Yes,Teen 18-19,Bogdan Ben,Богдан Бень,1999-01-07,73.45,,,,,,,,,,210,225,-237.5,,225,225,Ukraine
3,M,75,D,Raw,Yes,Teen 18-19,Ruslan Tikhonenko,Руслан Тихоненко,1998-06-17,72.8,,,,,,,,,,190,-200,-202.5,,190,190,Ukraine
1,M,75,D,Raw,Yes,Juniors 20-23,Oleg Zhuchkov,Олег Жучков,1994-03-18,73.55,,,,,,,,,,245,-255,265,-273,265,265,Ukraine
2,M,75,D,Raw,Yes,Juniors 20-23,Viktor Pirig,Віктор Пиріг,1996-04-22,74.85,,,,,,,,,,170,190,207.5,,207.5,207.5,Ukraine
3,M,75,D,Raw,Yes,Juniors 20-23,Dmitro Solonenko,Дмитро Солоненко,1994-06-11,71.8,,,,,,,,,,180,190,200,,200,200,Ukraine
4,M,75,D,Raw,Yes,Juniors 20-23,Dmitro Dovgiy,Дмитро Довгий,1994-05-29,73.75,,,,,,,,,,160,175,187.5,,187.5,187.5,Ukraine
1,M,75,D,Raw,Yes,Open,Valentin Gontar,Валентин Гонтар,1987-09-26,73.65,,,,,,,,,,240,247.5,-252.5,,247.5,247.5,Ukraine
1,M,75,D,Raw,Yes,Masters 40-44,Yaroslav Panchenko,Ярослав Панченко,1977-08-14,73.95,,,,,,,,,,-205,205,-215,,205,205,Ukraine
1,M,82.5,D,Raw,Yes,Juniors 20-23,Oleksandr Pashkovets,Олександр Пашковець,1997-02-03,79.85,,,,,,,,,,-225,230,240,,240,240,Ukraine
2,M,82.5,D,Raw,Yes,Juniors 20-23,Volodimir Galiga,Володимир Галига,1997-01-07,80.2,,,,,,,,,,215,225,230,,230,230,Ukraine
3,M,82.5,D,Raw,Yes,Juniors 20-23,Oleg Litvinenko,Олег Литвиненко,1995-03-25,79.85,,,,,,,,,,170,215,-225,,215,215,Ukraine
4,M,82.5,D,Raw,Yes,Juniors 20-23,Volodimir Ivasyutin,Володимир Івасютин,1995-07-27,76.4,,,,,,,,,,200,-210,210,,210,210,Ukraine
5,M,82.5,D,Raw,Yes,Juniors 20-23,Oleksandr Pilipenko,Олександр Пилипенко,1994-04-17,79.6,,,,,,,,,,185,197.5,-202.5,,197.5,197.5,Ukraine
6,M,82.5,D,Raw,Yes,Juniors 20-23,Volodimir Getman,Володимир Гетьман,1995-02-07,79.7,,,,,,,,,,190,200,-205,,200,200,Ukraine
1,M,82.5,D,Raw,Yes,Open,Oleg Litvinenko,Олег Литвиненко,1995-03-25,79.85,,,,,,,,,,170,215,-225,,215,215,Ukraine
1,M,82.5,D,Raw,Yes,Masters 50-54,Volodimir Galeta,Володимир Галета,1964-01-11,82,,,,,,,,,,145,155,165,,165,165,Ukraine
1,M,82.5,D,Raw,Yes,Masters 60-64,Oleksandr Ostrovskiy,Олександр Островський,1953-02-10,80.8,,,,,,,,,,160,170,177.5,,177.5,177.5,Ukraine
1,M,82.5,D,Raw,Yes,Masters 70-74,Yuriy Starkov,Юрий Старков,1947-09-01,81.65,,,,,,,,,,200,210,220,,220,220,Ukraine
1,M,90,D,Raw,Yes,Juniors 20-23,Vladislav Fartushniy,Владислав Фартушний,1997-08-03,83.75,,,,,,,,,,225,235,-245,,235,235,Ukraine
2,M,90,D,Raw,Yes,Juniors 20-23,Oleksandr Kryachok,Олександр Крячок,1996-06-06,90,,,,,,,,,,235,-247.5,-262.5,,235,235,Ukraine
1,M,90,D,Raw,Yes,Open,Evgeniy Levkovskiy,Євгеній Левковский,1990-02-19,88.25,,,,,,,,,,220,245,,,245,245,Ukraine
2,M,90,D,Raw,Yes,Open,Dmitro Dovbish,Дмитро Довбиш,1988-07-02,87.1,,,,,,,,,,210,220,230,,230,230,Ukraine
1,M,90,D,Raw,Yes,Masters 45-49,Viktor Poshtarenko,Віктор Поштаренко,1970-02-06,88.35,,,,,,,,,,-215,215,232.5,235,232.5,232.5,Ukraine
2,M,90,D,Raw,Yes,Masters 40-44,Oleksandr Drobilko,Олександр Дробілко,1972-11-13,86.65,,,,,,,,,,200,210,-212.5,,210,210,Ukraine
1,M,90,D,Raw,Yes,Masters 50-54,Genadiy Ostrovskiy,Генадій Островський,1965-01-08,86.1,,,,,,,,,,200,-207.5,,,200,200,Ukraine
1,M,100,D,Raw,Yes,Teen 13-15,Yaroslav Gavyada,Ярослав Гав'Яда,2003-02-18,95.1,,,,,,,,,,190,200,210,,210,210,Ukraine
1,M,100,D,Raw,Yes,Juniors 20-23,Dmitro Nikolaev,Дмитро Ніколаєв,1996-09-11,94.65,,,,,,,,,,250,270,-280,,270,270,Ukraine
1,M,100,D,Raw,Yes,Open,Dmitro Prosvirin,Дмитро Просвірін,1986-09-09,95.4,,,,,,,,,,285,295,305,,305,305,Ukraine
2,M,100,D,Raw,Yes,Open,Evgeniy Ivanets,Євгеній Іванець,1995-10-02,97.25,,,,,,,,,,270,280,-290,,280,280,Ukraine
3,M,100,D,Raw,Yes,Open,Andriy Levitskiy,Андрій Левицький,1988-06-04,96.3,,,,,,,,,,-230,230,-242.5,,230,230,Ukraine
4,M,100,D,Raw,Yes,Open,Eduard Gusev,Едуард Гусєв,1990-07-27,99.75,,,,,,,,,,220,230,-240,,230,230,Ukraine
1,M,100,D,Raw,Yes,Masters 50-54,Volodimir Kolomiets,Володимир Коломіець,1966-05-09,100,,,,,,,,,,-202.5,202.5,215,,215,215,Ukraine
1,M,110,D,Raw,Yes,Juniors 20-23,Mikhaylo Savenko,Михайло Савенко,1996-04-25,102.8,,,,,,,,,,300,307.5,-310,,307.5,307.5,Ukraine
1,M,110,D,Raw,Yes,Open,Mikhaylo Savenko,Михайло Савенко,1996-04-25,102.8,,,,,,,,,,300,307.5,-310,,307.5,307.5,Ukraine
2,M,110,D,Raw,Yes,Open,Ivan Khashchevatskiy,Іван Хащевацький,1992-11-17,108.5,,,,,,,,,,210,220,-230,,220,220,Ukraine
1,M,125,D,Raw,Yes,Open,Igor Zaychuk,Ігор Зайчук,1989-12-02,115.55,,,,,,,,,,292.5,312.5,-320,,312.5,312.5,Ukraine
1,M,140,D,Raw,Yes,Teen 16-17,Oles Petrenko,Олесь Петренко,2000-03-29,130.4,,,,,,,,,,180,190,200,,200,200,Ukraine
1,M,140,D,Raw,Yes,Open,Grigoriy Barannik,Григорій Бараннік,1990-05-09,126,,,,,,,,,,245,260,267.5,,267.5,267.5,Ukraine
1,M,125,D,Multi-ply,Yes,Open,Shalva Bebiashvili,,1987-01-05,117.95,,,,,,,,,,-240,240,250,,250,250,Georgia
