Place,Name,State,WeightClassKg,BodyweightKg,BirthDate,Age,Squat1Kg,Squat2Kg,Squat3Kg,Best3SquatKg,Bench1Kg,Bench2Kg,Bench3Kg,Best3BenchKg,Deadlift1Kg,Deadlift2Kg,Deadlift3Kg,Best3DeadliftKg,TotalKg,Event,Equipment,Sex,Division
1,Emily Burgess,MO,67.5,66,,23,125,135,140,140,70,75,77.5,77.5,137.5,147.5,152.5,152.5,370,SBD,Raw,F,Juniors 20-23
1,Erin Violi,NE,75,74.6,,23,85,95,102.5,102.5,42.5,-57.5,-57.5,42.5,80,92.5,102.5,102.5,247.5,SBD,Raw,F,Juniors 20-23
1,Emily Keith,NE,82.5,79,,22,100,110,-117.5,110,52.5,55,-57.5,55,112.5,122.5,132.5,132.5,297.5,SBD,Raw,F,Juniors 20-23
2,Alexandra Usher,KS,82.5,81,,21,-62.5,62.5,70,70,42.5,-47.5,-47.5,42.5,102.5,110,115,115,227.5,SBD,Raw,F,Juniors 20-23
1,Cheyenne Howard,KS,90+,108,,19,142.5,155,165,165,52.5,57.5,60,60,142.5,155,-170,155,380,SBD,Raw,F,Juniors 18-19
1,Christina Mccandless,MO,52,50.2,,33,85,92.5,97.5,97.5,57.5,62.5,-65,62.5,107.5,120,127.5,127.5,287.5,SBD,Raw,F,Open
1,Esmie Tseng,KS,60,58.4,,30,130,137.5,-142.5,137.5,80,-82.5,82.5,82.5,167.5,172.5,177.5,177.5,397.5,SBD,Raw,F,Open
2,Stephanie Hinchey,KS,60,59.2,,24,122.5,127.5,-135,127.5,87.5,-92.5,-92.5,87.5,157.5,165,172.5,172.5,387.5,SBD,Raw,F,Open
1,Jessica Slivinski,MO,67.5,66.8,,29,150,-162.5,-165,150,90,-95,-95,90,180,190,195,195,435,SBD,Raw,F,Open
2,Susan Harrison,MO,67.5,65.2,,42,147.5,165,-167.5,165,80,90,-92.5,90,155,172.5,-175,172.5,427.5,SBD,Raw,F,Open
3,Emily Burgess,MO,67.5,66,,23,125,135,140,140,70,75,77.5,77.5,137.5,147.5,152.5,152.5,370,SBD,Raw,F,Open
4,Kristen Jukes,MO,67.5,64.4,,33,107.5,115,120,120,70,75,-77.5,75,137.5,145,152.5,152.5,347.5,SBD,Raw,F,Open
5,Brenna Dwyer,MO,67.5,64.8,,25,107.5,112.5,120,120,80,-87.5,-87.5,80,137.5,140,-142.5,140,340,SBD,Raw,F,Open
6,Paula Lokshin,MO,67.5,65.8,,26,100,105,110,110,52.5,55,-57.5,55,120,130,137.5,137.5,302.5,SBD,Raw,F,Open
1,Emily Gamble,MO,75,73.8,,32,95,102.5,107.5,107.5,55,62.5,-67.5,62.5,122.5,132.5,142.5,142.5,312.5,SBD,Raw,F,Open
2,Melody Mcdannald,MO,75,74.6,,29,-97.5,97.5,102.5,102.5,57.5,62.5,-67.5,62.5,130,137.5,142.5,142.5,307.5,SBD,Raw,F,Open
3,Monica Gillespie,MO,75,68.6,,52,100,-105,107.5,107.5,55,60,-62.5,60,125,130,135,135,302.5,SBD,Raw,F,Open
4,Erin Violi,NE,75,74.6,,23,85,95,102.5,102.5,42.5,-57.5,-57.5,42.5,80,92.5,102.5,102.5,247.5,SBD,Raw,F,Open
1,Alicia Hollenbeck,KS,82.5,80,,24,115,122.5,-127.5,122.5,50,60,62.5,62.5,115,125,130,130,315,SBD,Raw,F,Open
2,Brittany Williams,MO,82.5,82.4,,27,-105,105,117.5,117.5,55,-60,-60,55,132.5,142.5,-145,142.5,315,SBD,Raw,F,Open
3,Ellen Likens,KS,82.5,82.2,,33,85,92.5,97.5,97.5,60,-65,-65,60,125,142.5,155,155,312.5,SBD,Raw,F,Open
4,Emily Keith,NE,82.5,79,,22,100,110,-117.5,110,52.5,55,-57.5,55,112.5,122.5,132.5,132.5,297.5,SBD,Raw,F,Open
5,Kathryn Ross,KS,82.5,80,,39,92.5,102.5,-107.5,102.5,50,55,-60,55,115,125,-130,125,282.5,SBD,Raw,F,Open
1,Anna Krattli,MO,90,86.8,,30,112.5,122.5,127.5,127.5,55,62.5,65,65,120,132.5,140,140,332.5,SBD,Raw,F,Open
1,Felisha Gibbs,KS,90+,95.4,,24,177.5,190,197.5,197.5,97.5,102.5,110,110,200,-227.5,-227.5,200,507.5,SBD,Raw,F,Open
2,Angela Huckabee,KS,90+,110,,34,175,192.5,197.5,197.5,92.5,100,-107.5,100,180,197.5,-202.5,197.5,495,SBD,Raw,F,Open
3,Kelli Millikan,MO,90+,146,,33,160,165,172.5,172.5,85,90,97.5,97.5,185,205,225,225,495,SBD,Raw,F,Open
4,Jacquelynn Sims,MO,90+,108.2,,29,-130,137.5,147.5,147.5,100,105,-110,105,185,200,210,210,462.5,SBD,Raw,F,Open
5,Roxanna Pimentel,IA,90+,128.6,,29,167.5,177.5,185,185,87.5,-92.5,-92.5,87.5,175,182.5,187.5,187.5,460,SBD,Raw,F,Open
6,Cheyenne Howard,KS,90+,108,,19,142.5,155,165,165,52.5,57.5,60,60,142.5,155,-170,155,380,SBD,Raw,F,Open
DQ,Marylin Woodman,MO,75,67.8,,36,-145,145,150,150,92.5,-95,95,95,-170,-170,-170,,,SBD,Raw,F,Submasters 35-39
1,Kathryn Ross,KS,82.5,80,,39,92.5,102.5,-107.5,102.5,50,55,-60,55,115,125,-130,125,282.5,SBD,Raw,F,Submasters 35-39
1,Amanda West,MO,90+,97.8,,39,125,135,140,140,57.5,62.5,-65,62.5,142.5,155,162.5,162.5,365,SBD,Raw,F,Submasters 35-39
1,Margot Mccunniff,MO,60,59.2,,57,-82.5,82.5,-95,82.5,42.5,-50,-50,42.5,102.5,117.5,125,125,250,SBD,Raw,F,Masters 55-59
1,Susan Harrison,MO,67.5,65.2,,42,147.5,165,-167.5,165,80,90,-92.5,90,155,172.5,-175,172.5,427.5,SBD,Raw,F,Masters 40-44
1,Jessi Freeman,MO,75,69.2,,41,-127.5,-127.5,127.5,127.5,72.5,-75,75,75,157.5,162.5,167.5,167.5,370,SBD,Raw,F,Masters 40-44
1,Monica Gillespie,MO,75,68.6,,52,100,-105,107.5,107.5,55,60,-62.5,60,125,130,135,135,302.5,SBD,Raw,F,Masters 50-54
1,Sandra Wallace,KS,75,75,,69,70,75,80,80,45,50,-52.5,50,125,130,135,135,265,SBD,Raw,F,Masters 65-69
1,Heather Tully,KS,90,89.2,,40,125,135,140,140,60,65,-72.5,65,142.5,155,-162.5,155,360,SBD,Raw,F,Masters 40-44
1,Stacie Korte,MO,90,84.4,,58,100,-115,115,115,60,-65,65,65,137.5,152.5,162.5,162.5,342.5,SBD,Raw,F,Masters 55-59
1,Zack Gomric,KS,67.5,65.6,,23,107.5,117.5,125,125,75,77.5,80,80,160,170,175,175,380,SBD,Raw,M,Juniors 20-23
1,Kaiden Brown,KS,75,73.8,,17,-185,185,-190,185,102.5,105,-107.5,105,185,-190,190,190,480,SBD,Raw,M,Juniors 16-17
1,Casey Koehn,KS,75,75,,19,142.5,150,157.5,157.5,92.5,97.5,-102.5,97.5,192.5,210,-227.5,210,465,SBD,Raw,M,Juniors 18-19
1,Salvador Soto,MO,82.5,82.4,,17,-205,205,-215,205,127.5,-132.5,-132.5,127.5,-220,-227.5,227.5,227.5,560,SBD,Raw,M,Juniors 16-17
1,Mckinley Miller,NE,82.5,81.8,,19,142.5,152.5,160,160,102.5,-107.5,107.5,107.5,-185,-190,190,190,457.5,SBD,Raw,M,Juniors 18-19
1,Brandt Wieberg,MO,82.5,81.8,,23,205,212.5,220,220,137.5,-147.5,147.5,147.5,240,260,-267.5,260,627.5,SBD,Raw,M,Juniors 20-23
2,David Potter,KS,82.5,79.6,,22,-167.5,167.5,175,175,117.5,125,-127.5,125,180,190,197.5,197.5,497.5,SBD,Raw,M,Juniors 20-23
3,Derek Lopez,KS,82.5,81.8,,21,150,172.5,182.5,182.5,82.5,92.5,102.5,102.5,172.5,182.5,202.5,202.5,487.5,SBD,Raw,M,Juniors 20-23
1,Jaylon Goode,MO,90,85.6,,23,157.5,165,170,170,117.5,122.5,-127.5,122.5,190,200,205,205,497.5,SBD,Raw,M,Juniors 20-23
2,Charlie Phillps,MO,90,86.2,,22,137.5,152.5,-165,152.5,92.5,-100,100,100,182.5,195,-200,195,447.5,SBD,Raw,M,Juniors 20-23
DQ,Josh Benge,IA,90,90,,21,-205,-212.5,-212.5,,135,-137.5,137.5,137.5,-225,-225,225,225,,SBD,Raw,M,Juniors 20-23
1,Dylan Smith,KS,100,98.2,,20,260,282.5,-295,282.5,215,227.5,-235,227.5,272.5,295,-317.5,295,805,SBD,Raw,M,Juniors 20-23
2,Brandon Valdez,KS,100,97.8,,22,-217.5,235,240,240,142.5,157.5,-165,157.5,227.5,255,-265,255,652.5,SBD,Raw,M,Juniors 20-23
3,Luke Kennedy,WA,100,98,,21,220,230,242.5,242.5,142.5,155,160,160,215,227.5,235,235,637.5,SBD,Raw,M,Juniors 20-23
1,Bryce Braun,KS,110,107.8,,20,225,235,-242.5,235,155,160,-162.5,160,240,250,265,265,660,SBD,Raw,M,Juniors 20-23
2,Devon Wright,MO,110,109.6,,22,225,230,237.5,237.5,137.5,145,152.5,152.5,220,232.5,242.5,242.5,632.5,SBD,Raw,M,Juniors 20-23
3,Ross Nigro,MO,110,106.8,,20,130,137.5,147.5,147.5,102.5,115,-122.5,115,170,182.5,-190,182.5,445,SBD,Raw,M,Juniors 20-23
1,Alec Deherrera,KS,125,123.6,,23,210,220,230,230,-127.5,127.5,-137.5,127.5,235,257.5,267.5,267.5,625,SBD,Raw,M,Juniors 20-23
1,Michael Chalupny,MO,67.5,65.4,,26,142.5,150,-152.5,150,100,102.5,-105,102.5,195,205,207.5,207.5,460,SBD,Raw,M,Open
1,Kyle Phipps,MO,75,71.8,,25,-185,185,187.5,187.5,110,112.5,115,115,220,227.5,-235,227.5,530,SBD,Raw,M,Open
2,Robert Fenton,KS,75,73.4,,42,152.5,160,167.5,167.5,97.5,105,112.5,112.5,185,197.5,207.5,207.5,487.5,SBD,Raw,M,Open
1,Ron Tolie,MO,82.5,80.4,,30,177.5,185,197.5,197.5,130,137.5,140,140,257.5,-275,-275,257.5,595,SBD,Raw,M,Open
2,Jake Helphingstine,KS,82.5,79.8,,24,180,192.5,200,200,122.5,132.5,-145,132.5,212.5,-215,-215,212.5,545,SBD,Raw,M,Open
3,Landon Cole,MO,82.5,79.6,,28,170,185,195,195,-120,120,-125,120,200,210,220,220,535,SBD,Raw,M,Open
4,Josh Crawford,MO,82.5,80.8,,29,162.5,172.5,180,180,117.5,-130,-132.5,117.5,207.5,-215,215,215,512.5,SBD,Raw,M,Open
1,Drew Dowd,MO,90,89,,24,257.5,270,-277.5,270,125,137.5,142.5,142.5,257.5,275,282.5,282.5,695,SBD,Raw,M,Open
2,Jacob Parker,MO,90,87.8,,30,227.5,237.5,245,245,137.5,-145,-145,137.5,267.5,277.5,287.5,287.5,670,SBD,Raw,M,Open
3,Matthew Burns,KS,90,88,,33,220,230,240,240,132.5,142.5,-150,142.5,260,267.5,-272.5,267.5,650,SBD,Raw,M,Open
4,Jacob Wallace #1,KS,90,88.8,,32,207.5,217.5,227.5,227.5,132.5,140,-145,140,240,-257.5,257.5,257.5,625,SBD,Raw,M,Open
5,Jeff Crouch,KS,90,89.6,,30,180,195,205,205,140,150,160,160,210,225,237.5,237.5,602.5,SBD,Raw,M,Open
6,Dylan Farrell,MO,90,84,,29,180,190,195,195,127.5,135,140,140,220,227.5,237.5,237.5,572.5,SBD,Raw,M,Open
7,Dom Fells,MO,90,89,,27,182.5,195,-205,195,147.5,157.5,-165,157.5,207.5,220,-232.5,220,572.5,SBD,Raw,M,Open
8,Matt Grooms,MO,90,90,,45,192.5,197.5,205,205,125,135,140,140,197.5,205,215,215,560,SBD,Raw,M,Open
1,Dylan Smith,KS,100,98.2,,20,260,282.5,-295,282.5,215,227.5,-235,227.5,272.5,295,-317.5,295,805,SBD,Raw,M,Open
2,Matt Geist,MO,100,98.8,,35,227.5,242.5,260,260,175,190,197.5,197.5,275,287.5,-305,287.5,745,SBD,Raw,M,Open
3,Clinton Johnson,KS,100,98.6,,28,252.5,-265,-265,252.5,145,152.5,-155,152.5,270,282.5,-285,282.5,687.5,SBD,Raw,M,Open
4,Brandon Valdez,KS,100,97.8,,22,-217.5,235,240,240,142.5,157.5,-165,157.5,227.5,255,-265,255,652.5,SBD,Raw,M,Open
5,Zach Dudenhoeffer,MO,100,96.2,,23,-195,-200,200,200,137.5,142.5,147.5,147.5,255,272.5,-275,272.5,620,SBD,Raw,M,Open
6,Cody Raeder,MO,100,90.4,,24,197.5,207.5,212.5,212.5,152.5,160,-162.5,160,212.5,227.5,235,235,607.5,SBD,Raw,M,Open
7,John Ink,KS,100,98.6,,26,197.5,205,207.5,207.5,112.5,117.5,122.5,122.5,220,-227.5,-227.5,220,550,SBD,Raw,M,Open
8,Ryan Bowles,KS,100,99.2,,26,155,160,167.5,167.5,-110,-110,110,110,190,197.5,205,205,482.5,SBD,Raw,M,Open
1,Kade Proctor,MO,110,109.8,,24,290,305,317.5,317.5,192.5,205,-210,205,317.5,345,352.5,352.5,875,SBD,Raw,M,Open
2,Robb Bradford,MO,110,110,,30,287.5,305,317.5,317.5,217.5,-227.5,-227.5,217.5,282.5,297.5,-310,297.5,832.5,SBD,Raw,M,Open
3,Drew Mitchell,KS,110,108,,25,250,260,272.5,272.5,177.5,187.5,200,200,267.5,275,-287.5,275,747.5,SBD,Raw,M,Open
4,John Filipek,MO,110,102.4,,24,237.5,247.5,-260,247.5,150,-157.5,-157.5,150,280,300,-305,300,697.5,SBD,Raw,M,Open
5,Daniel Huckabee Sr,KS,110,104.6,,37,220,230,,230,155,165,-170,165,220,232.5,245,245,640,SBD,Raw,M,Open
6,Thomas McClellan,MO,110,105,,36,220,230,240,240,165,-175,175,175,-220,225,-230,225,640,SBD,Raw,M,Open
7,Brandon Chandler,MO,110,108,,24,210,222.5,232.5,232.5,125,132.5,-137.5,132.5,220,232.5,245,245,610,SBD,Raw,M,Open
8,Andres Rabinovich,KS,110,106.4,,34,185,195,200,200,125,130,-132.5,130,210,227.5,237.5,237.5,567.5,SBD,Raw,M,Open
DQ,Ed Gutierrez,KS,110,106.6,,27,-205,-205,,,,,,,,,,,,SBD,Raw,M,Open
1,Will Korte,MO,125,113.2,,27,265,280,290,290,-187.5,195,-200,195,307.5,317.5,-332.5,317.5,802.5,SBD,Raw,M,Open
2,Mason Seeger,MO,125,118.4,,22,200,212.5,222.5,222.5,140,150,160,160,205,222.5,237.5,237.5,620,SBD,Raw,M,Open
1,Matthew Sefton,MO,140,135.8,,32,205,230,-240,230,175,-185,193,193,285,307.5,318,318,741,SBD,Raw,M,Open
2,Daniel Duncan,MO,140,129.6,,26,260,270,277.5,277.5,157.5,170,-177.5,170,257.5,275,280,280,727.5,SBD,Raw,M,Open
3,Ethan Burge,MO,140,137.4,,26,235,250,-262.5,250,167.5,175,-182.5,175,282.5,-295,-295,282.5,707.5,SBD,Raw,M,Open
1,Bryan Hartsel,KS,140+,164.4,,31,305,317.5,330,330,185,195,-210,195,305,345,-365,345,870,SBD,Raw,M,Open
1,Daniel Huckabee Sr,KS,110,104.6,,37,220,230,,230,155,165,-170,165,220,232.5,245,245,640,SBD,Raw,M,Submasters 35-39
2,Thomas McClellan,MO,110,105,,36,220,230,240,240,165,-175,175,175,-220,225,-230,225,640,SBD,Raw,M,Submasters 35-39
3,Steven Edwards,MO,110,107.6,,37,205,215,-227.5,215,137.5,145,-150,145,207.5,220,237.5,237.5,597.5,SBD,Raw,M,Submasters 35-39
1,Robert Fenton,KS,75,73.4,,42,152.5,160,167.5,167.5,97.5,105,112.5,112.5,185,197.5,207.5,207.5,487.5,SBD,Raw,M,Masters 40-44
1,Matt Grooms,MO,90,90,,45,192.5,197.5,205,205,125,135,140,140,197.5,205,215,215,560,SBD,Raw,M,Masters 45-49
1,Stan Mitchell,KS,100,98.4,,53,177.5,-185,185,185,132.5,137.5,-142.5,137.5,207.5,215,-222.5,215,537.5,SBD,Raw,M,Masters 50-54
1,Trent Bills,KS,110,107.8,,48,165,177.5,-187.5,177.5,90,100,105,105,175,190,200,200,482.5,SBD,Raw,M,Masters 45-49
