Name,Age,Sex,Equipment,Division,BodyweightKg,WeightClassKg,Squat1Kg,Squat2Kg,Squat3Kg,Best3SquatKg,Bench1Kg,Bench2Kg,Bench3Kg,Best3BenchKg,Deadlift1Kg,Deadlift2Kg,Deadlift3Kg,Best3DeadliftKg,TotalKg,Place,Event
Zoe Demarzo,19,F,Wraps,F-OR,48,48,70,-77.5,77.5,77.5,35,40,-42.5,40,90,95,100,100,217.5,1,SBD
Sarah Pedri,29,F,Wraps,F-OR,52,52,80,87.5,92.5,92.5,35,40,42.5,42.5,110,117.5,125,125,260,1,SBD
Sarah Moir,25,F,Wraps,F-OR,56,56,140,-145,,140,80,-85,-87.5,80,150,160,175,175,395,1,SBD
Nina Markopoulos,52,F,Wraps,F-OR,55.4,56,105,115,122.5,122.5,60,67.5,-72.5,67.5,125,140,-150,140,330,2,SBD
Helene Faccio,48,F,Wraps,F-OR,54.8,56,105,115,-120,115,50,52.5,-55,52.5,140,150,155,155,322.5,3,SBD
Renee Gill,28,F,Wraps,F-OR,55.6,56,115,-120,120,120,65,-70,-70,65,117.5,125,130,130,315,4,SBD
Sarah Menis,28,F,Wraps,F-OR,56,56,82.5,92.5,,92.5,65,72.5,-75,72.5,135,150,-155,150,315,5,SBD
Chanelle Harkness,23,F,Wraps,F-OR,55.7,56,95,100,105,105,60,62.5,-65,62.5,115,120,125,125,292.5,6,SBD
Jodie Watson,36,F,Wraps,F-OR,59.6,60,-125,125,-130,125,67.5,-70,70,70,135,145,150,150,345,1,SBD
Sevasti Anastasiadis,17,F,Wraps,F-OR,59.3,60,120,-132.5,132.5,132.5,55,60,-62.5,60,125,140,147.5,147.5,340,2,SBD
Renee Theyers,28,F,Wraps,F-OR,59.7,60,95,102.5,-107.5,102.5,57.5,-62.5,-62.5,57.5,140,147.5,152.5,152.5,312.5,3,SBD
Joanna Lawrence,47,F,Wraps,F-OR,58.3,60,-85,85,95,95,67.5,-72.5,72.5,72.5,112.5,120,127.5,127.5,295,4,SBD
Amy Moldenhauer,22,F,Wraps,F-OR,60,60,90,95,100,100,60,65,-70,65,115,122.5,127.5,127.5,292.5,5,SBD
Alexandra Hegmann,26,F,Wraps,F-OR,59.7,60,80,90,100,100,50,-55,55,55,100,110,120,120,275,6,SBD
Deborah Lowe,37,F,Wraps,F-OR,67.3,67.5,150,-160,160,160,75,80,-85,80,180,195,-207.5,195,435,1,SBD
Belinda Selvanera,43,F,Wraps,F-OR,65.7,67.5,165,175,-182.5,175,80,-85,85,85,160,170,-180,170,430,2,SBD
Daphne Karipis,22,F,Wraps,F-OR,67.2,67.5,120,127.5,130,130,70,75,-77.5,75,130,137.5,-140,137.5,342.5,3,SBD
Kathy Genitsaris,55,F,Wraps,F-OR,66,67.5,100,110,115,115,50,55,-57.5,55,140,155,165,165,335,4,SBD
Georgie Johnston,29,F,Wraps,F-OR,64.5,67.5,95,102.5,110,110,-52.5,52.5,55,55,135,145,-152.5,145,310,5,SBD
Lilli Campbell,23,F,Wraps,F-OR,62.4,67.5,-90,90,95,95,37.5,-40,-40,37.5,90,-97.5,-102.5,90,222.5,6,SBD
Anita Duff,72,F,Wraps,F-OR,64.4,67.5,35,45,50,50,27.5,32.5,-35,32.5,60,70,80,80,162.5,7,SBD
Rachel Rogers,36,F,Wraps,F-OR,61,67.5,70,-75,75,75,,,,,,,,,,DQ,SBD
Dakoda Plumridge,25,F,Wraps,F-OR,75,75,160,170,180,180,87.5,90,-95,90,180,195,-207.5,195,465,1,SBD
Era Christakos,21,F,Wraps,F-OR,74.6,75,135,145,150,150,57.5,62.5,65,65,147.5,160,165,165,380,2,SBD
Natalka Kostraby,27,F,Wraps,F-OR,73.1,75,115,122.5,130,130,55,60,-62.5,60,125,135,145,145,335,3,SBD
Parwin Miazoi,31,F,Wraps,F-OR,71.1,75,95,105,112.5,112.5,45,50,52.5,52.5,110,120,130,130,295,4,SBD
Bonita Chow,31,F,Wraps,F-OR,74,75,92.5,-97.5,100,100,-47.5,-50,50,50,115,125,-130,125,275,5,SBD
Rachel Tito,25,F,Wraps,F-OR,82.3,82.5,165,175,180,180,80,85,-92.5,85,-185,200,-210,200,465,1,SBD
Katherine Birrer,29,F,Wraps,F-OR,82.3,82.5,137.5,147.5,155,155,75,77.5,-80,77.5,160,167.5,-177.5,167.5,400,2,SBD
Karen Beardsley,36,F,Wraps,F-OR,82.3,82.5,135,-145,145,145,55,-60,-60,55,140,150,-160,150,350,3,SBD
Dianne Castanelli,69,F,Wraps,F-OR,75.8,82.5,-90,-90,-90,,40,45,47.5,47.5,100,110,-117.5,110,,DQ,SBD
Layla Buscca,24,F,Wraps,F-OR,87.7,90,150,160,170,170,70,75,-80,75,150,162.5,-167.5,162.5,407.5,1,SBD
Danielle Cox,32,F,Wraps,F-OR,90,90,155,162.5,-167.5,162.5,65,70,,70,150,160,-167.5,160,392.5,2,SBD
Jessica Timmons,36,F,Wraps,F-OR,90,90,107.5,115,122.5,122.5,60,65,67.5,67.5,107.5,117.5,125,125,315,3,SBD
Alex Ralph,21,F,Wraps,F-OR,92.3,110,125,135,142.5,142.5,65,67.5,70,70,145,157.5,167.5,167.5,380,1,SBD
Annette Kennedy,46,F,Wraps,F-OR,97.3,110,130,140,145,145,65,70,72.5,72.5,142.5,152.5,162.5,162.5,380,2,SBD
Andrea Li-Donni,41,F,Wraps,F-OR,101,110,125,140,150,150,52.5,-57.5,57.5,57.5,145,-160,-165,145,352.5,3,SBD
Wendy Duff,45,F,Wraps,F-OR,101.5,110,90,-100,-100,90,-55,-60,60,60,120,130,-135,130,280,4,SBD
Tea Pascoe,35,F,Wraps,F-OR,127.9,110+,155,170,185,185,90,97.5,102.5,102.5,135,150,-155,150,437.5,1,SBD
Graham Ely,28,M,Multi-ply,M-OE,79.6,82.5,215,232.5,240,240,115,127.5,-140,127.5,215,232.5,-250,232.5,600,1,SBD
Griffin Spence,26,M,Wraps,M-OR,66.2,67.5,157.5,-170,-170,157.5,95,102.5,107.5,107.5,215,227.5,235,235,500,1,SBD
Tristan Gilmour,22,M,Wraps,M-OR,74.1,75,205,220,227.5,227.5,135,140,145,145,205,-220,227.5,227.5,600,1,SBD
Jade Cooper,27,M,Wraps,M-OR,73.4,75,162.5,172.5,180,180,115,122.5,-127.5,122.5,245,260,-265,260,562.5,2,SBD
Harry Bowman,23,M,Wraps,M-OR,73.7,75,195,215,-230,215,110,117.5,122.5,122.5,200,215,-230,215,552.5,3,SBD
Nick Kroussos,24,M,Wraps,M-OR,75,75,195,-205,-205,195,115,122.5,-127.5,122.5,205,215,222.5,222.5,540,4,SBD
Alastair Clark,33,M,Wraps,M-OR,73.8,75,165,180,190,190,110,-115,-120,110,205,220,-230,220,520,5,SBD
Daniel Bendinelli,24,M,Wraps,M-OR,73.2,75,180,187.5,192.5,192.5,95,-100,-100,95,190,200,-212.5,200,487.5,6,SBD
Robin Broff,20,M,Wraps,M-OR,72.1,75,145,155,165,165,100,107.5,115,115,130,145,160,160,440,7,SBD
Thomas Rose,22,M,Wraps,M-OR,70.9,75,107.5,115,-122.5,115,90,-95,-95,90,165,-175,175,175,380,8,SBD
Jamie Bisset,24,M,Wraps,M-OR,81.6,82.5,255,267.5,275,275,145,152.5,157.5,157.5,265,287.5,-292.5,287.5,720,1,SBD
Jake Weber-Byrne,27,M,Wraps,M-OR,81.7,82.5,200,220,230,230,125,140,145,145,210,225,230,230,605,2,SBD
Adrian Cole,32,M,Wraps,M-OR,82.3,82.5,180,190,-200,190,117.5,122.5,,122.5,-210,225,237.5,237.5,550,3,SBD
Jordan Oliva,26,M,Wraps,M-OR,81.1,82.5,190,205,220,220,110,117.5,122.5,122.5,190,205,-220,205,547.5,4,SBD
Reggie Miller,23,M,Wraps,M-OR,80.3,82.5,165,175,-182.5,175,100,110,115,115,200,215,227.5,227.5,517.5,5,SBD
Luke Faulkner,31,M,Wraps,M-OR,89.9,90,235,250,260,260,140,150,160,160,250,262.5,272.5,272.5,692.5,1,SBD
Alex Michael #1,30,M,Wraps,M-OR,89.5,90,235,250,260,260,145,155,162.5,162.5,240,262.5,267.5,267.5,690,2,SBD
David Tran-Cong,29,M,Wraps,M-OR,88.8,90,225,235,245,245,147.5,155,-160,155,240,-250,-250,240,640,3,SBD
James Gilliam,23,M,Wraps,M-OR,89.2,90,210,230,235,235,140,150,155,155,220,240,250,250,640,4,SBD
Mitch Farquhar,25,M,Wraps,M-OR,89.3,90,-240,-240,245,245,125,132.5,140,140,230,245,250,250,635,5,SBD
Christopher Sheedy,22,M,Wraps,M-OR,88.8,90,205,217.5,-227.5,217.5,127.5,135,-140,135,232.5,247.5,260,260,612.5,6,SBD
Stephen Wilson,21,M,Wraps,M-OR,89.8,90,225,-235,-237.5,225,110,117.5,-125,117.5,240,250,260,260,602.5,7,SBD
Blake Witherow,30,M,Wraps,M-OR,84.7,90,175,190,200,200,145,152.5,155,155,215,235,240,240,595,8,SBD
Steve Jellett,26,M,Wraps,M-OR,88.1,90,215,227.5,-235,227.5,125,130,-135,130,215,230,-240,230,587.5,9,SBD
Bryce Johnston,24,M,Wraps,M-OR,86,90,210,220,230,230,120,127.5,-130,127.5,190,205,215,215,572.5,10,SBD
Veki Pocuca,27,M,Wraps,M-OR,87.9,90,185,195,-200,195,110,117.5,120,120,215,225,240,240,555,11,SBD
Geoff Fridey,44,M,Wraps,M-OR,84.2,90,160,175,-185,175,90,97.5,102.5,102.5,210,220,225,225,502.5,12,SBD
Martin Patience,52,M,Raw,M-OR,86.2,90,,,,,145,150,155,155,,,,,155,1,B
Alex Deken,25,M,Wraps,M-OR,95,100,280,300,310,310,180,190,195,195,295,305,-315,305,810,1,SBD
Nathan Dickens,33,M,Wraps,M-OR,99.5,100,260,275,285,285,165,175,-185,175,300,320,325,325,785,2,SBD
Jackson Drew,23,M,Wraps,M-OR,99.9,100,237.5,250,260,260,130,142.5,-150,142.5,237.5,250,260,260,662.5,3,SBD
Adam Stewart,24,M,Wraps,M-OR,98.6,100,235,250,260,260,130,140,145,145,230,245,-255,245,650,4,SBD
John Delinac,42,M,Wraps,M-OR,99.9,100,-230,230,-240,230,155,-165,-165,155,245,260,-265,260,645,5,SBD
Simon Higham,23,M,Wraps,M-OR,98.7,100,210,232.5,240,240,140,152.5,-155,152.5,240,250,-257.5,250,642.5,6,SBD
Mark Whelan,43,M,Wraps,M-OR,98.9,100,220,230,240,240,125,135,-140,135,240,250,260,260,635,7,SBD
Ian Henderson,25,M,Wraps,M-OR,99.9,100,240,-255,-255,240,140,150,-155,150,230,-250,-250,230,620,8,SBD
Matt Metcher,25,M,Wraps,M-OR,97,100,210,220,225,225,110,115,120,120,200,220,230,230,575,9,SBD
Dylan Finlay,24,M,Wraps,M-OR,95.5,100,190,215,-230,215,110,125,135,135,-190,215,222.5,222.5,572.5,10,SBD
Igor Bontjak,18,M,Wraps,M-OR,99,100,190,205,215,215,120,127.5,132.5,132.5,190,210,220,220,567.5,11,SBD
Brendan Ratcliffe,22,M,Wraps,M-OR,97.7,100,170,180,185,185,105,112.5,115,115,205,220,225,225,525,12,SBD
Bryce Morey,22,M,Wraps,M-OR,96.7,100,180,192.5,205,205,95,102.5,107.5,107.5,175,187.5,-192.5,187.5,500,13,SBD
Tyson Morrissy,25,M,Wraps,M-OR,109,110,290,300,310,310,167.5,175,-180,175,290,325,350,350,835,1,SBD
Chris Fisher,26,M,Wraps,M-OR,106,110,260,280,300,300,140,150,155,155,260,282.5,295,295,750,2,SBD
Mathew Procak,28,M,Wraps,M-OR,109.9,110,265,285,-300,285,170,175,-180,175,250,275,-295,275,735,3,SBD
Nathan Whiles,32,M,Wraps,M-OR,109.7,110,260,-280,-280,260,-180,190,-200,190,260,-280,,260,710,4,SBD
Matt Paglia,40,M,Wraps,M-OR,105.4,110,250,260,270,270,150,160,-165,160,250,260,270,270,700,5,SBD
Ryan Clayton,23,M,Wraps,M-OR,107.6,110,200,215,225,225,160,170,-175,170,252.5,272.5,-280,272.5,667.5,6,SBD
George Ah See,33,M,Wraps,M-OR,108.8,110,205,215,222.5,222.5,172.5,182.5,187.5,187.5,210,220,230,230,640,7,SBD
Nathan Wells,24,M,Wraps,M-OR,122.2,125,300,320,335,335,180,200,205,205,280,300,310,310,850,1,SBD
Ben Winstone,34,M,Wraps,M-OR,124.4,125,290,310,320,320,180,192.5,195,195,290,310,330,330,845,2,SBD
Warrick Eccles,24,M,Wraps,M-OR,124.1,125,280,305,325,325,180,190,195,195,280,305,322.5,322.5,842.5,3,SBD
Daniel Kranitz,21,M,Wraps,M-OR,122.4,125,250,270,280,280,150,160,165,165,250,270,280,280,725,4,SBD
Earl Murphy,25,M,Wraps,M-OR,116.2,125,220,240,-255,240,140,150,155,155,260,280,-290,280,675,5,SBD
Blake Taggert,28,M,Wraps,M-OR,121.5,125,225,235,245,245,130,137.5,142.5,142.5,245,-260,-260,245,632.5,6,SBD
Robert Franklin,27,M,Wraps,M-OR,120,125,175,185,-190,185,105,-110,-110,105,185,195,-202.5,195,485,7,SBD
Dallas Sciascia,36,M,Wraps,M-OR,136.8,140,260,-280,282.5,282.5,150,160,165,165,262.5,282.5,292.5,292.5,740,1,SBD
Bob Connolly,34,M,Wraps,M-OR,128,140,220,240,-260,240,170,180,190,190,280,300,-310,300,730,2,SBD
Teava Nanai,26,M,Wraps,M-OR,139.8,140,235,250,-260,250,135,150,-160,150,240,260,272.5,272.5,672.5,3,SBD
Josh Goschnick,19,M,Wraps,M-OR,132.7,140,235,250,260,260,120,130,135,135,240,260,270,270,665,4,SBD
Shannon Groenendyk,30,M,Wraps,M-OR,180,140+,-300,-300,,,,,,,,,,,,DQ,SBD
